Classifier1
0,0.505003706449222,0.531384015594542,0.603656126482213,0.657811921510552,0.697953216374269,0.595804988662131,0.663520801232666,0.569992035045799,0.572245520396492,0.592995169082126,0.64067861227602,0.690947797112181,0.564780342516753,0.655120481927711
0,0.645624247290245,0.581623134328358,0.68625730994152,0.530496987951807,0.610815939278937,0.573391812865497,0.625810141059855,0.661016949152542,0.640869233701868,0.598018053375196,0.559996147919877,0.60827664399093,0.607963102409639,0.62008895478132
0,0.644517628826036,0.612561951963401,0.624149659863946,0.706546489563567,0.540673864482502,0.585541044776119,0.668724279835391,0.660217308425467,0.520682424704537,0.587067018072289,0.579166666666667,0.663789868667917,0.651266061980348,0.621693121693122
0,0.65009328358209,0.649898785425101,0.552240210843373,0.609938008523828,0.585843373493976,0.634153428903526,0.578154784597789,0.641521658644946,0.545066413662239,0.649637819290888,0.570800598578376,0.586884928322356,0.641891891891892,0.646299810246679
0,0.603898635477583,0.659048680787811,0.598578376356154,0.607513914656772,0.549697656840514,0.622740963855422,0.614750957854406,0.688303099017385,0.66462281679673,0.670918367346939,0.608371126228269,0.609662288930582,0.667911877394636,0.551762523191095
0,0.593190298507463,0.64272030651341,0.589500193723363,0.631777108433735,0.636389630194434,0.597797439759036,0.660740878629933,0.67153011597456,0.672634508348794,0.640781192151055,0.607023411371237,0.59925732637495,0.649259259259259,0.703004622496148
0,0.612059369202226,0.650304994281357,0.58682917611489,0.631144465290807,0.525901328273245,0.622207743857036,0.612101313320826,0.641138059701493,0.550725986597171,0.523148148148148,0.586863619472315,0.60331681280976,0.626356154133932,0.68140589569161
0,0.590759395583107,0.546321006481129,0.637518825301205,0.605354391371341,0.692407407407407,0.612371330537552,0.544796035074342,0.641231343283582,0.617723880597015,0.615584415584416,0.64204966641957,0.701625094482237,0.524561403508772,0.597556460570159
0,0.643297380585516,0.585087719298246,0.617800074321813,0.616902834008097,0.711158465710965,0.625145292522278,0.534450301204819,0.611509358821187,0.658675373134328,0.609280873493976,0.570644080416977,0.672222222222222,0.666883842144453,0.614175451807229
0,0.548469387755102,0.627861163227017,0.586788066640837,0.616183759054518,0.590648148148148,0.540058479532164,0.673179565383149,0.643448795180723,0.547083492184522,0.578651685393258,0.706042921686747,0.588761295180723,0.609416698436904,0.658981481481482
0,0.635632183908046,0.633557800224467,0.632894227043782,0.568044961862706,0.62094861660079,0.604591836734694,0.620092592592593,0.555040770941438,0.636432637571157,0.678004535147392,0.590445269016698,0.597312237895539,0.659327387588257,0.592120181405896
0,0.653237951807229,0.603030880670987,0.636753731343284,0.590892262125139,0.488753335874952,0.712207105064248,0.639683734939759,0.511740890688259,0.556027966742253,0.673120089786756,0.632672512390393,0.615009380863039,0.595029239766082,0.565833333333333
0,0.590431519699812,0.618500948766603,0.663805970149254,0.598644578313253,0.588290662650602,0.620181405895692,0.613893072289157,0.594212523719165,0.656098017209128,0.55675828313253,0.622011385199241,0.613002787733971,0.590722035166479,0.58639846743295
0,0.573863636363636,0.642068836513281,0.592966704077815,0.692367299496319,0.633097542814594,0.634726502311248,0.628200301204819,0.659141583054627,0.650781547845978,0.599312523225567,0.667056530214425,0.663926681783825,0.722962962962963,0.582961724266072
0,0.652543958099514,0.657206509104998,0.612550607287449,0.654960981047938,0.6328125,0.630491437081162,0.616234017822549,0.666976917349218,0.613092979127135,0.543335901386749,0.601091867469879,0.584048507462686,0.564342403628118,0.651679104477612
0,0.651637801204819,0.59626064420585,0.597525773195876,0.703393061380099,0.608633776091082,0.601317318868656,0.689868667917448,0.615455893254262,0.670933734939759,0.582930007446016,0.636007462686567,0.670955165692008,0.592623560014864,0.604329245633593
0,0.613636363636364,0.593701848998459,0.592870544090056,0.615654648956357,0.69682103610675,0.574359939759036,0.537755102040816,0.642870980240217,0.677334337349398,0.647153700189753,0.553853754940711,0.551594746716698,0.642963514519732,0.700597072419106
0,0.555555555555556,0.639637904468413,0.668392319277108,0.645,0.58390022675737,0.603458049886621,0.605747126436782,0.657690817512592,0.567931688804554,0.615362811791383,0.666603415559772,0.651147723065531,0.594559099437148,0.662220149253731
0,0.616057981927711,0.617446393762183,0.584782608695652,0.662126865671642,0.734013867488444,0.600664136622391,0.602225963337074,0.617354596622889,0.603673223604978,0.618390804597701,0.680995043842928,0.646184062850729,0.666885553470919,0.603256777108434
0,0.688104988830975,0.531404174573055,0.693045331266951,0.603678929765886,0.642528735632184,0.623211596385542,0.570978502594515,0.655217045001991,0.667703733440385,0.728639846743295,0.596938775510204,0.654444444444444,0.661075104841784,0.609801720912832
0,0.613380763714613,0.610981384959433,0.617945291800827,0.627421673449218,0.618564466511058,0.610721092694003,0.615045406968434,0.630280537081617,0.614516975837921,0.615454562269272,0.615965643393344,0.628618500830116,0.625039074753647,0.625464329006506
Classifier2
0,0.509451445515196,0.545321637426901,0.577766798418972,0.666975194372455,0.688304093567251,0.575680272108843,0.638578582434515,0.603942652329749,0.594929470072436,0.60163507989595,0.659836065573771,0.673269159570529,0.547282204020849,0.616999246987952
0,0.605078281814532,0.652798507462687,0.639863547758285,0.605892319277109,0.591366223908918,0.616666666666667,0.578917270301182,0.628659476117103,0.618566526877621,0.555926216640502,0.563944530046225,0.591269841269841,0.635071536144578,0.60470719051149
0,0.606450987989152,0.613324437666794,0.600056689342404,0.609108159392789,0.59614668652271,0.534421641791045,0.571642349420127,0.641822340831109,0.546892870758673,0.632059487951807,0.644074074074074,0.566979362101313,0.599773242630385,0.630196523053666
0,0.652611940298507,0.594736842105263,0.560240963855422,0.580007748934521,0.598926957831325,0.606257264626114,0.583206252382768,0.598482043687523,0.598481973434535,0.618089973313,0.557239057239057,0.640061991476172,0.614309514994446,0.681593927893738
0,0.607407407407407,0.609810479375697,0.592592592592593,0.614656771799629,0.615173847316705,0.602974397590361,0.612643678160919,0.643518518518518,0.622445187662579,0.580687830687831,0.553571428571429,0.5906191369606,0.583045977011494,0.636549165120594
0,0.61660447761194,0.616283524904215,0.658562572646261,0.602503765060241,0.633434998093786,0.582643072289157,0.656366344005957,0.639169472502806,0.646753246753247,0.58034061458719,0.580081753994798,0.65766760337214,0.601481481481482,0.630585516178736
0,0.601948051948052,0.638772398017537,0.646636432350718,0.595684803001876,0.555787476280835,0.62397617274758,0.498030018761726,0.614738805970149,0.606478034251675,0.568121693121693,0.637402452619844,0.670129622569577,0.630471380471381,0.615079365079365
0,0.614781092599768,0.564906595501334,0.603727409638554,0.631837442218798,0.655555555555555,0.613800991231414,0.590735798703774,0.626305970149254,0.610167910447761,0.612059369202226,0.627501853224611,0.667328042328042,0.635380116959064,0.620418363569049
0,0.633859784283513,0.611111111111111,0.601542177629134,0.600202429149798,0.618946144905076,0.588240991863619,0.62707078313253,0.670151334129829,0.654477611940299,0.639777861445783,0.577624720774386,0.657309941520468,0.611131794489948,0.561746987951807
0,0.547996976568405,0.664446529080675,0.562088337853545,0.610083873427373,0.570185185185185,0.597270955165692,0.591593595120091,0.65210843373494,0.600362180709112,0.546784192173576,0.638648343373494,0.616905120481928,0.572054898970644,0.64462962962963
0,0.586973180076628,0.59652076318743,0.643355288647811,0.565535929345644,0.585375494071146,0.594860166288738,0.650555555555556,0.598962194217939,0.638140417457306,0.612717309145881,0.56178107606679,0.605032405642394,0.578595317725752,0.558201058201058
0,0.648531626506024,0.579679756004575,0.656716417910448,0.546649389115142,0.606652687762104,0.628495842781557,0.600997740963855,0.526923076923077,0.596182917611489,0.648148148148148,0.598265345024781,0.606472795497186,0.631189083820663,0.571666666666667
0,0.5906191369606,0.61707779886148,0.552798507462687,0.634224397590362,0.593185240963855,0.605536659108088,0.662368222891566,0.612713472485768,0.62037037037037,0.616152108433735,0.57011385199241,0.677021107128634,0.568462401795735,0.614942528735632
0,0.584553158705701,0.627946127946128,0.660306771417883,0.570321580782642,0.650037230081906,0.657068567026194,0.654085090361446,0.573021181716834,0.628288219595883,0.612876254180602,0.638304093567251,0.644557823129252,0.6875,0.535117056856187
0,0.662457912457912,0.588240991863619,0.560526315789474,0.60916016350799,0.650790662650602,0.609828741623232,0.60499806276637,0.670141474311243,0.562239089184061,0.62037750385208,0.605609939759036,0.567444029850746,0.535241874527589,0.61044776119403
0,0.656438253012048,0.613106256941873,0.613917525773196,0.642489515821578,0.608918406072106,0.614296784192174,0.612570356472796,0.615919199406968,0.680722891566265,0.587676842889054,0.646735074626866,0.639668615984405,0.620494240059457,0.586213303604608
0,0.556493506493506,0.614406779661017,0.617636022514071,0.637760910815939,0.660223704866562,0.602597891566265,0.528200371057514,0.628632313056955,0.628294427710843,0.617172675521822,0.542588932806324,0.593808630393996,0.632446016381236,0.614406779661017
0,0.608024691358025,0.613925269645609,0.600621234939759,0.624444444444445,0.595521541950113,0.622071050642479,0.578735632183908,0.642580395195661,0.629127134724858,0.640967498110355,0.663946869070209,0.645501666049611,0.600656660412758,0.648134328358209
0,0.622646837349398,0.620565302144249,0.574604743083004,0.634328358208955,0.656972265023112,0.588804554079696,0.627197904975683,0.635272045028143,0.613207547169811,0.581609195402299,0.61094166984369,0.638608305274972,0.643339587242026,0.649284638554217
0,0.664743112434847,0.57988614800759,0.634250290585044,0.581753994797473,0.677873563218391,0.600621234939759,0.551426982950334,0.615093588211868,0.589321557607387,0.668103448275862,0.527276295133438,0.63037037037037,0.624189858940145,0.653759820426487
0,0.608883593069558,0.608143362845789,0.607890532010463,0.608181059553238,0.620468898291362,0.603305695916434,0.600996029630131,0.621907899426272,0.61427247929531,0.60706416514897,0.600274371369124,0.629001278548609,0.607605859403982,0.614233992911707
Classifier3
0,0.564862861378799,0.584795321637427,0.608300395256917,0.694187338022954,0.683430799220273,0.604308390022676,0.62904468412943,0.594782954998009,0.667174990468929,0.667781493868451,0.665078154784598,0.693724546464272,0.615040953090097,0.640248493975904
0,0.639100762745885,0.623414179104478,0.679142300194932,0.579442771084337,0.70303605313093,0.629824561403509,0.6263820053374,0.666891371340524,0.684902783072817,0.601059654631083,0.599768875192604,0.619047619047619,0.690417921686747,0.640937731653076
0,0.661177838047269,0.666126572626763,0.651549508692366,0.701423149905123,0.581533879374535,0.627798507462687,0.62467265245043,0.664601601219977,0.593118566526878,0.625376506024096,0.629537037037037,0.623545966228893,0.619614512471655,0.659486016628874
0,0.704291044776119,0.675708502024291,0.557417168674699,0.656431615652848,0.633847891566265,0.643645873692367,0.63677087304613,0.683913365420215,0.636812144212524,0.647445672893633,0.663673774784886,0.65149166989539,0.658830062939652,0.690986717267552
0,0.659551656920077,0.689056112969157,0.629723157500935,0.648330241187384,0.622260015117158,0.650978915662651,0.651340996168582,0.662981859410431,0.659977703455964,0.701058201058201,0.644368858654573,0.59765478424015,0.689655172413793,0.679128014842301
0,0.640951492537314,0.644252873563218,0.636962417667571,0.649661144578313,0.635436523065192,0.631777108433735,0.667628443782576,0.709502431724654,0.717254174397032,0.623287671232877,0.631921218877741,0.690084303492574,0.639444444444445,0.690485362095531
0,0.63191094619666,0.680709111704155,0.65249433106576,0.584052532833021,0.657210626185958,0.661764705882353,0.543808630393996,0.600932835820895,0.584512285927029,0.600151171579743,0.637402452619844,0.71216164696912,0.672091283202394,0.650321239606954
0,0.602285935683843,0.595501334349981,0.646272590361446,0.670454545454546,0.691666666666667,0.628192908882959,0.671368661837591,0.63945895522388,0.646641791044776,0.648979591836735,0.657153446997776,0.722789115646259,0.63187134502924,0.657719363198815
0,0.648208782742681,0.620077972709551,0.660163507989595,0.677429149797571,0.70437814800465,0.652750871755134,0.625188253012049,0.663480684986061,0.723880597014926,0.690417921686747,0.607781087118392,0.647173489278752,0.641939687267312,0.621893825301205
0,0.568972033257748,0.70891181988743,0.668636187524216,0.655928326343881,0.575648148148148,0.654191033138401,0.632863133816241,0.686088102409639,0.599885627144491,0.617590081363812,0.669521837349398,0.606174698795181,0.609226077011056,0.676666666666667
0,0.654406130268199,0.658716797605687,0.671638899651298,0.589120835006022,0.644664031620553,0.655139833711262,0.656574074074074,0.594699777613047,0.718500948766604,0.651549508692366,0.574489795918367,0.647159740754861,0.65273132664437,0.630574452003024
0,0.696347891566265,0.605794891345787,0.684421641791045,0.654109589041096,0.617327487609607,0.706065759637188,0.625282379518072,0.52246963562753,0.67535903250189,0.70463898241676,0.632195958825772,0.669887429643527,0.654093567251462,0.617962962962963
0,0.620731707317073,0.639943074003795,0.655876865671642,0.664909638554217,0.66566265060241,0.601379440665155,0.640813253012048,0.64089184060721,0.668350168350168,0.633094879518073,0.665654648956357,0.684587813620071,0.669940142162364,0.644731800766284
0,0.621725731895223,0.634960718294052,0.699214365881032,0.701375435877567,0.636634400595682,0.676617873651772,0.65417921686747,0.635823114083984,0.651067479984751,0.643162393162393,0.703411306042885,0.657218442932729,0.730185185185185,0.53586027499071
0,0.643658810325477,0.65865943432778,0.60334008097166,0.640839836492011,0.603068524096386,0.634400595681311,0.64664858581945,0.695271779597915,0.60246679316888,0.6134437596302,0.674887048192771,0.606156716417911,0.568405139833711,0.638805970149254
0,0.685617469879518,0.663180303591262,0.652886597938144,0.691383911551659,0.648481973434535,0.67067028283611,0.706003752345216,0.690140845070423,0.724962349397591,0.611969471332837,0.673880597014926,0.659551656920078,0.645020438498699,0.629784466740989
0,0.639332096474954,0.647342064714947,0.667166979362101,0.68292220113852,0.707810047095761,0.654273343373494,0.581354359925788,0.64267725687718,0.705007530120482,0.650379506641366,0.615118577075099,0.668198874296436,0.690804169769174,0.649653312788906
0,0.626917321361766,0.649460708782743,0.66820406626506,0.619444444444445,0.605820105820106,0.630385487528345,0.639463601532567,0.687330492057342,0.655123339658443,0.676398337112623,0.715559772296015,0.664938911514254,0.601500938086304,0.661100746268657
0,0.644578313253012,0.641715399610136,0.631719367588933,0.70625,0.757800462249615,0.688140417457305,0.634867190422746,0.681988742964353,0.637193898032919,0.688984674329502,0.703678993518872,0.69818555929667,0.66454033771107,0.67921686746988
0,0.656645569620253,0.611195445920303,0.666020922123208,0.589371980676329,0.659770114942529,0.638930722891566,0.614807264640474,0.69663480684986,0.671617824167001,0.697701149425287,0.614697802197802,0.6925,0.687190240182997,0.685559296670408
0,0.640563719812407,0.644976131938647,0.649557567608628,0.652853434382092,0.651774427427348,0.647061831688499,0.635453100606617,0.653028122695156,0.661190501370705,0.649723531421839,0.648989062172786,0.660611649272737,0.651627147244086,0.649056179102398
Classifier4
0,0.525481838398814,0.547953216374269,0.589426877470356,0.660866345797853,0.659746588693957,0.524281934996221,0.510304314329738,0.576563122262047,0.621711780404117,0.614269788182832,0.628097598170034,0.673361717882266,0.551656738644825,0.617375753012048
0,0.62786029706945,0.549253731343284,0.660428849902534,0.560335090361446,0.642789373814042,0.593762183235867,0.645825390773923,0.657453775038521,0.651353412123523,0.541699372056515,0.587153312788906,0.562358276643991,0.635165662650602,0.564214232765011
0,0.625726462611391,0.615707205489897,0.642290249433107,0.663946869070209,0.570644080416977,0.566324626865672,0.571922933034044,0.583206252382768,0.541650781547846,0.589514307228916,0.561111111111111,0.574296435272045,0.548374905517763,0.63869992441421
0,0.628544776119403,0.627327935222672,0.52964984939759,0.637737311119721,0.585655120481928,0.595118171251453,0.577296988181472,0.589781562384302,0.610436432637571,0.618566526877621,0.640385334829779,0.630956993413406,0.654572380599778,0.680455407969639
0,0.603313840155945,0.683667781493869,0.575757575757576,0.569202226345084,0.588813303099017,0.661238704819277,0.60095785440613,0.592498110355253,0.637309550353029,0.645691609977324,0.565759637188209,0.585834896810507,0.634674329501916,0.610111317254174
0,0.601212686567164,0.64272030651341,0.56886865555986,0.656155873493976,0.591593595120091,0.58640813253012,0.611038719285182,0.615881032547699,0.614285714285714,0.551647537948908,0.593831289483463,0.604375752709755,0.641481481481481,0.64002311248074
0,0.594526901669759,0.619043080442242,0.637093726379441,0.54390243902439,0.570683111954459,0.657576321667908,0.545684803001876,0.549067164179105,0.608060312732688,0.561413454270597,0.60182088442958,0.618947769729318,0.648896371118593,0.566893424036281
0,0.507555211158466,0.574818909645444,0.56042921686747,0.636652542372881,0.599907407407407,0.553183377811666,0.570243995425086,0.594123134328358,0.577518656716418,0.606679035250464,0.635841363973313,0.637660619803477,0.602534113060429,0.584228063680118
0,0.602754237288135,0.616374269005848,0.600334448160535,0.606477732793522,0.66263076327005,0.610131731886866,0.514966114457831,0.62773795300677,0.584608208955224,0.62547063253012,0.555100521221147,0.578362573099415,0.655807892777364,0.537368222891566
0,0.522297808012094,0.650656660412758,0.622530027121271,0.604079298513153,0.548240740740741,0.62037037037037,0.619805566145635,0.586784638554217,0.54336637438048,0.544265788454088,0.610786897590362,0.617281626506024,0.614944719786504,0.658055555555556
0,0.62816091954023,0.637205387205387,0.659628051142968,0.549678843837816,0.633300395256917,0.563492063492063,0.565092592592593,0.530948851000741,0.701423149905123,0.614512471655329,0.608070500927644,0.578154784597789,0.629227053140097,0.589191232048375
0,0.639871987951807,0.609512009149828,0.624813432835821,0.590429470566457,0.529260388867709,0.642762660619803,0.583113704819277,0.489878542510121,0.614417989417989,0.681163486719042,0.60055280213496,0.639024390243902,0.560526315789474,0.579166666666667
0,0.568574108818011,0.565370018975332,0.618097014925373,0.630459337349398,0.574265813253012,0.573412698412698,0.53746234939759,0.55673624288425,0.614104002992892,0.60890436746988,0.626280834914611,0.606133014735165,0.590347923681257,0.582088122605364
0,0.589657164869029,0.595398428731762,0.609708193041526,0.696822936846184,0.607315711094564,0.609013867488444,0.632247740963855,0.606930509104422,0.671368661837591,0.595410628019324,0.652436647173489,0.632180650037793,0.629259259259259,0.531308063916759
0,0.568462401795735,0.603448275862069,0.59078947368421,0.592809364548495,0.557040662650602,0.616437081161578,0.608388221619527,0.64463886820551,0.597153700189753,0.619414483821264,0.616810993975904,0.603358208955224,0.610166288737717,0.579944029850746
0,0.643448795180723,0.603202517586079,0.58319587628866,0.637723980175372,0.598007590132827,0.643161565284773,0.629174484052533,0.620088954781319,0.70152484939759,0.551935964259121,0.589272388059702,0.567641325536062,0.580917874396135,0.642512077294686
0,0.637847866419295,0.524942218798151,0.624484052532833,0.580265654648956,0.669544740973312,0.579536897590361,0.581910946196661,0.583010461061604,0.66613328313253,0.598481973434535,0.583201581027668,0.617823639774859,0.592982129560685,0.592931432973806
0,0.610362888140666,0.626251926040062,0.561652861445783,0.560740740740741,0.585034013605442,0.551209372637944,0.58132183908046,0.612262688880279,0.573719165085389,0.632842025699168,0.645351043643264,0.619955572010366,0.588930581613509,0.571828358208955
0,0.57859563253012,0.62729044834308,0.62302371541502,0.71455223880597,0.68287750385208,0.641271347248577,0.60082304526749,0.642870544090056,0.566439181051786,0.650862068965517,0.664601601219977,0.655256266367377,0.603377110694184,0.599115210843373
0,0.611597170513775,0.499240986717267,0.616621464548625,0.560943887030844,0.647030651340996,0.541886295180723,0.626204595997035,0.673636001592991,0.613207547169811,0.68544061302682,0.59271978021978,0.657407407407407,0.641822340831109,0.653946876169098
0,0.595792649740501,0.600969265667636,0.604941180595528,0.612689109172123,0.605219077801307,0.596528970227619,0.585689309951397,0.596704920457517,0.615489637715853,0.606909306792369,0.607959306204145,0.613018596076807,0.610783273642134,0.600972854231859
Classifier5
0,0.54466271312083,0.623196881091618,0.636857707509882,0.636430951499445,0.669590643274854,0.631330309901739,0.628274268104777,0.629629629629629,0.617422798322531,0.67651430694909,0.695005718642775,0.667160310995927,0.596798212956068,0.669898343373494
0,0.600662384584504,0.67705223880597,0.666471734892788,0.590549698795181,0.68235294117647,0.661598440545809,0.611894776972932,0.623459167950693,0.696054136484941,0.545035321821036,0.649557010785825,0.61885865457294,0.732868975903615,0.662898443291327
0,0.689170864006199,0.631528783835303,0.642668178382464,0.741745730550284,0.48752792256143,0.569216417910448,0.607369996258885,0.735798703774304,0.649256576439192,0.65417921686747,0.648703703703704,0.604971857410882,0.588624338624339,0.616213151927438
0,0.714272388059702,0.663157894736842,0.567394578313253,0.629600929872142,0.648343373493976,0.607516466485858,0.604269919939001,0.654387263976305,0.696015180265654,0.620186808997331,0.647586980920314,0.686458736923673,0.694187338022954,0.663946869070209
0,0.683625730994151,0.649015235971758,0.637860082304527,0.681354359925789,0.642668178382464,0.656155873493976,0.614176245210728,0.660430839002268,0.646785581568191,0.670634920634921,0.627173091458806,0.555722326454034,0.694252873563219,0.663821892393321
0,0.555597014925373,0.640613026819923,0.631247578457962,0.651167168674699,0.631338162409455,0.59582078313253,0.607594936708861,0.681069958847737,0.670500927643785,0.620325805257312,0.679301374953549,0.673123243677238,0.686296296296296,0.649749614791987
0,0.650092764378479,0.690335493709493,0.640684051398337,0.536022514071295,0.638140417457305,0.642218912881608,0.600750469043152,0.650373134328359,0.659344750558451,0.626228269085412,0.591787439613527,0.703964925657644,0.685933408155631,0.665343915343915
0,0.542037969779155,0.674037361799466,0.650225903614458,0.64522342064715,0.673518518518519,0.579870377430423,0.730842546702249,0.64589552238806,0.66875,0.649350649350649,0.683283914010378,0.64484126984127,0.69298245614035,0.693817104776009
0,0.671802773497689,0.645808966861598,0.612969156447418,0.706477732793521,0.69876017047656,0.645389383959706,0.642131024096386,0.672640382317801,0.716044776119403,0.692582831325302,0.635145197319435,0.676120857699805,0.610014892032763,0.663121234939759
0,0.596560846560847,0.707598499061914,0.657109647423479,0.671368661837591,0.55462962962963,0.623976608187134,0.606938619900877,0.629706325301205,0.591021730842547,0.626501356063541,0.694465361445783,0.604480421686747,0.557091117041555,0.639814814814815
0,0.681992337164751,0.65413393191171,0.685683843471523,0.616619831393015,0.612845849802372,0.62651171579743,0.677592592592593,0.582375833951075,0.66831119544592,0.619425547996977,0.575324675324675,0.652497140678612,0.587328130806392,0.636243386243386
0,0.716114457831326,0.628097598170035,0.637966417910448,0.702332469455757,0.612657262676325,0.680177626606198,0.643542921686747,0.523279352226721,0.607331821617536,0.661242050130939,0.693290125810141,0.683489681050657,0.72729044834308,0.58962962962963
0,0.606848030018762,0.620683111954459,0.657835820895522,0.623117469879518,0.619352409638554,0.629062736205594,0.643448795180723,0.668406072106262,0.673026561915451,0.598832831325302,0.690132827324478,0.671445639187575,0.650299289188178,0.648850574712644
0,0.629911402157165,0.608492330714553,0.691170968948747,0.680356450987989,0.60740878629933,0.701174884437597,0.692959337349398,0.659791898922334,0.617994662600076,0.663322185061316,0.717348927875243,0.678571428571429,0.727962962962963,0.572742474916388
0,0.682753460531238,0.669120495931809,0.552226720647773,0.62578966926793,0.621799698795181,0.604058078927774,0.646842309182488,0.717795979151155,0.60550284629981,0.65851309707242,0.700677710843374,0.604477611940298,0.619236583522298,0.613059701492537
0,0.645896084337349,0.649666790077749,0.716082474226804,0.733320625238277,0.658254269449715,0.696629213483146,0.64624765478424,0.628057820607858,0.710843373493976,0.636075949367089,0.655037313432836,0.635185185185185,0.628948346339651,0.657376439985136
0,0.58126159554731,0.658320493066256,0.674108818011257,0.689563567362429,0.688579277864992,0.663121234939759,0.577736549165121,0.668733049205734,0.738704819277108,0.67865275142315,0.613833992094862,0.668855534709193,0.694434102755026,0.661402157164869
0,0.606808829031051,0.659090909090909,0.672251506024097,0.647962962962963,0.607520786092214,0.59599395313681,0.678927203065134,0.709802402169702,0.535673624288425,0.643990929705216,0.723624288425047,0.63680118474639,0.639587242026267,0.675932835820896
0,0.586219879518072,0.655360623781676,0.683794466403162,0.696455223880597,0.724768875192604,0.670398481973435,0.653853348297793,0.716510318949344,0.655760738659173,0.65632183908046,0.62847884102173,0.654320987654321,0.662288930581614,0.720444277108434
0,0.644825018615041,0.608254269449715,0.645292522278187,0.608881456707544,0.647701149425287,0.634036144578313,0.605633802816902,0.676324173636001,0.66258530710558,0.695402298850575,0.541306907378336,0.632962962962963,0.699008768585589,0.70679012345679
0,0.63155582723295,0.650678246842138,0.647995108878104,0.655717044790156,0.636387916130862,0.635712882200764,0.636051365852949,0.656723391422127,0.654346570447388,0.644665948318275,0.654553270119241,0.647715498080339,0.658771735692392,0.653554849262649
Classifier6
0,0.587101556708673,0.621247563352826,0.646640316205534,0.681414291003332,0.666764132553606,0.714569160997732,0.662750385208013,0.624651533253683,0.682138772398018,0.67948717948718,0.685951200914983,0.299148463532025,0.620811615785555,0.663027108433735
0,0.603271778402248,0.667910447761194,0.671832358674464,0.620952560240964,0.692979127134724,0.661598440545809,0.671749904689287,0.676714175654854,0.698055661456348,0.679454474097331,0.680181047765794,0.648715041572185,0.734280873493976,0.656226834692365
0,0.689170864006199,0.662886008387343,0.626228269085412,0.744781783681214,0.620997766195086,0.648134328358209,0.612046389824168,0.731033168128098,0.649447197865041,0.645707831325301,0.653888888888889,0.654502814258912,0.651549508692366,0.683390022675737
0,0.705410447761194,0.665384615384615,0.627447289156626,0.650329329717164,0.646272590361446,0.694304533126695,0.645920701486848,0.695668271010737,0.662049335863378,0.679756004574914,0.636363636363636,0.674060441689268,0.692521288411699,0.723624288425047
0,0.682651072124756,0.670011148272018,0.626262626262626,0.68404452690167,0.707766439909297,0.658132530120482,0.696072796934866,0.683295540438398,0.702898550724638,0.723356009070295,0.673280423280423,0.660037523452158,0.699329501915709,0.595732838589981
0,0.652425373134329,0.666091954022989,0.665439752034095,0.658226656626507,0.692146397255052,0.706890060240964,0.688198064035741,0.710718294051627,0.728200371057514,0.650499814883377,0.685061315496098,0.6870734644721,0.678888888888889,0.700885978428352
0,0.693506493506493,0.699771254288982,0.691137566137566,0.640337711069418,0.679696394686907,0.701414743112435,0.602908067542214,0.641977611940298,0.642218912881609,0.630007558578987,0.641025641025641,0.700533739992376,0.712682379349046,0.69973544973545
0,0.660693529639675,0.695672893633244,0.694277108433735,0.664869029275809,0.667592592592593,0.701677468547465,0.73961113229127,0.636940298507462,0.666511194029851,0.647402597402598,0.686805040770942,0.687641723356009,0.695126705653021,0.71380970011107
0,0.674691833590139,0.644054580896686,0.650130063173542,0.705060728744939,0.714161177838047,0.665439752034095,0.68128765060241,0.677618478693747,0.741044776119403,0.726750753012048,0.626954579300075,0.692884990253411,0.622859270290395,0.66039156626506
0,0.6281179138322,0.733583489681051,0.69314219294847,0.670415554708349,0.570462962962963,0.631189083820663,0.664029736942433,0.714796686746988,0.659740754860847,0.618655559860519,0.702183734939759,0.618128765060241,0.605604269919939,0.668240740740741
0,0.681130268199234,0.656098017209128,0.732661759008137,0.620232838217583,0.653557312252965,0.657123960695389,0.677037037037037,0.61119347664937,0.69696394686907,0.637471655328798,0.635064935064935,0.643728555089592,0.646692679301375,0.647581254724112
0,0.71573795180723,0.633625619519634,0.691138059701493,0.245649759348389,0.67203583682806,0.688492063492064,0.642131024096386,0.586943319838057,0.687641723356009,0.728582117471006,0.724552039649257,0.685365853658537,0.73849902534113,0.66462962962963
0,0.653001876172608,0.642314990512334,0.648880597014925,0.659073795180723,0.660579819277109,0.638321995464853,0.740775602409639,0.667172675521822,0.675458286569398,0.721573795180723,0.690702087286527,0.728395061728395,0.6556303778526,0.624137931034483
0,0.641949152542374,0.675364758698092,0.693976805087916,0.676869430453313,0.711559940431869,0.714849768875192,0.711690512048193,0.662021553325901,0.673846740373618,0.694351542177629,0.708869395711501,0.695011337868481,0.639074074074074,0.602378298030472
0,0.71324354657688,0.66427741185587,0.619331983805667,0.63331475287997,0.661050451807229,0.617460908413999,0.672220069740411,0.717423678332093,0.651612903225806,0.687692604006163,0.694653614457832,0.609235074626866,0.627739984882842,0.642537313432836
0,0.667921686746988,0.660958904109589,0.721443298969072,0.73570339306138,0.67988614800759,0.71154591243704,0.713508442776736,0.659377316530764,0.733621987951808,0.669583023082651,0.695522388059701,0.709746588693957,0.647621701969528,0.648829431438127
0,0.637012987012987,0.663328197226502,0.702814258911819,0.722106261859582,0.688481161695447,0.687311746987952,0.588589981447124,0.677838047268501,0.25,0.705123339658444,0.633399209486166,0.724202626641651,0.732688011913627,0.6596687211094
0,0.642723531612421,0.657935285053929,0.644860692771084,0.641481481481482,0.601851851851852,0.684712773998488,0.748659003831418,0.744769469197985,0.698481973434535,0.63567649281935,0.735958254269449,0.717882265827471,0.646153846153847,0.686007462686567
0,0.697477409638555,0.642007797270955,0.686561264822134,0.694402985074627,0.731317411402158,0.672485768500949,0.654414515525627,0.725891181988743,0.682456844640707,0.668965517241379,0.708825772016775,0.688552188552188,0.726829268292683,0.710655120481928
0,0.714072970960536,0.671726755218216,0.71551724137931,0.575343738387217,0.65191570881226,0.648060993975903,0.622868791697554,0.671346077260055,0.666900843034926,0.689655172413793,0.656004709576138,0.668518518518518,0.699008768585589,0.725776281331837
0,0.667065612198786,0.66471258461776,0.672486175179182,0.646230530395682,0.668553761192813,0.675185799687319,0.671823490508369,0.675869542716959,0.662464538835626,0.675987652083624,0.677762395716226,0.659668251942217,0.673679602038394,0.668863298599847
Classifier7
0,0.591363973313566,0.516764132553606,0.56304347826087,0.595335061088486,0.673099415204678,0.665627362055934,0.594761171032358,0.62962962962963,0.695196340068624,0.68580453363062,0.685093404498666,0.670307293594965,0.627885331347729,0.660768072289157
0,0.610397430750703,0.676212686567165,0.682066276803119,0.649096385542169,0.656166982922201,0.646101364522417,0.565001906214258,0.647919876733436,0.658406404879909,0.672684458398744,0.688751926040062,0.631519274376417,0.709713855421687,0.584507042253521
0,0.620495931809376,0.626477316050324,0.572940287226001,0.719734345351044,0.588049143708116,0.595895522388059,0.485970819304153,0.596073198627526,0.660884483415936,0.576995481927711,0.584074074074074,0.587804878048781,0.612055933484505,0.668934240362812
0,0.693283582089552,0.655364372469635,0.578689759036145,0.608581944982565,0.643825301204819,0.507942657884541,0.461303850552802,0.626619770455387,0.666034155597723,0.592642012962257,0.636363636363636,0.69314219294847,0.646242132543502,0.649715370018975
0,0.67719298245614,0.607952434039391,0.585671530115975,0.708534322820037,0.700302343159486,0.630459337349398,0.459770114942529,0.358654572940287,0.651802303976217,0.326908541194255,0.679138321995465,0.406754221388368,0.57816091954023,0.533395176252319
0,0.648320895522388,0.642145593869732,0.611972103835723,0.615022590361446,0.642394205108654,0.625941265060241,0.602568875651527,0.37317620650954,0.327829313543599,0.655312847093669,0.680602006688963,0.700722601364914,0.668333333333333,0.286979969183359
0,0.658070500927644,0.680709111704155,0.339758125472411,0.575984990619137,0.66034155597723,0.688756515264334,0.563977485928705,0.569962686567164,0.604430379746835,0.654761904761905,0.617985878855444,0.272969881814716,0.640852974186308,0.633786848072562
0,0.588337853545138,0.646778497903164,0.563441265060241,0.685670261941448,0.636111111111111,0.604269919939001,0.70110560426992,0.605970149253731,0.520335820895523,0.625788497217069,0.363417346182357,0.700680272108844,0.710233918128654,0.702702702702703
0,0.669298921417566,0.615009746588694,0.539390561129692,0.670040485829959,0.325067803177063,0.642386671832623,0.671121987951808,0.637594583831143,0.659888059701493,0.667921686746988,0.60536113179449,0.589863547758285,0.613179448994788,0.646649096385542
0,0.558390022675737,0.55328330206379,0.60015497869043,0.661265726267633,0.532222222222222,0.571734892787524,0.646969119329013,0.34582078313253,0.617041555470835,0.608097636574971,0.688629518072289,0.494917168674699,0.673274876096073,0.618148148148148
0,0.643295019157088,0.627010849233072,0.733824099186362,0.637494981934966,0.632411067193676,0.566137566137566,0.699444444444445,0.509636767976279,0.660151802656547,0.606575963718821,0.599721706864564,0.59893252001525,0.625418060200669,0.602418745275888
0,0.654367469879518,0.640297369424323,0.637686567164179,0.617919289152166,0.64506290507053,0.662320483749055,0.65003765060241,0.626518218623481,0.633408919123205,0.688552188552189,0.654784597788791,0.663227016885553,0.708771929824562,0.632037037037037
0,0.608067542213884,0.401897533206831,0.631343283582089,0.647025602409639,0.607680722891567,0.659674981103553,0.702183734939759,0.389753320683112,0.708754208754209,0.670180722891567,0.674193548387096,0.696136997212266,0.332210998877666,0.617624521072797
0,0.580701078582435,0.616535727646839,0.402731013842125,0.574970941495545,0.706813104988831,0.672380585516179,0.509600903614458,0.65551839464883,0.642966069386199,0.624581939799331,0.318713450292398,0.711262282690854,0.722962962962963,0.59290226681531
0,0.676019453797232,0.663211933359163,0.639574898785425,0.606094388703085,0.625282379518072,0.571109456440804,0.654397520340953,0.283879374534624,0.579316888045541,0.613828967642527,0.329442771084337,0.621082089552239,0.61432350718065,0.630037313432836
0,0.647778614457831,0.625138837467604,0.235051546391752,0.343690430804422,0.580265654648956,0.670476559473073,0.688555347091933,0.675500370644922,0.666792168674699,0.654597915115413,0.618097014925373,0.702729044834308,0.655053883314753,0.460795243403939
0,0.572356215213358,0.701848998459168,0.681894934333959,0.656356736242884,0.707810047095761,0.655120481927711,0.616512059369202,0.672801239829523,0.646649096385542,0.628462998102467,0.584584980237154,0.45046904315197,0.656366344005957,0.678929121725733
0,0.633557800224467,0.61402157164869,0.641754518072289,0.645925925925926,0.607331821617536,0.624338624338624,0.631034482758621,0.653428903525765,0.684060721062618,0.668745275888133,0.675332068311195,0.731395779340985,0.411069418386492,0.691044776119403
0,0.641378012048193,0.615594541910331,0.629841897233201,0.526305970149254,0.633474576271186,0.629222011385199,0.627759072203517,0.703189493433395,0.262143717382577,0.617049808429119,0.394205108654213,0.579498690609802,0.64765478424015,0.664344879518072
0,0.677401340282949,0.63719165085389,0.707962030220845,0.555369751021925,0.663218390804598,0.678463855421687,0.575055596738325,0.658303464755077,0.643516659975913,0.314942528735632,0.656691522762951,0.411851851851852,0.678802897445673,0.719603441825664
0,0.632503732018238,0.618172310350978,0.578939657722142,0.615021006632187,0.623346537694815,0.628418005728876,0.605356587364035,0.560997550316769,0.609480453437187,0.607721795469169,0.586759200693676,0.595763332411177,0.626628375475817,0.613766200594789
Classifier8
0,0.586638250555967,0.627095516569201,0.607905138339921,0.639577934098482,0.690643274853801,0.739512471655329,0.592257318952234,0.627240143369176,0.608463591307663,0.680044593088072,0.632481890964544,0.694742687893373,0.585070737155622,0.661332831325301
0,0.599156965074267,0.652985074626866,0.667056530214425,0.617093373493976,0.677609108159393,0.660233918128655,0.677182615325963,0.583301232665639,0.681662218833397,0.674843014128728,0.682973805855162,0.555177626606198,0.639589608433735,0.653632320237213
0,0.675125920185975,0.663553183377812,0.626984126984127,0.689943074003795,0.572505584512286,0.648787313432836,0.607557052001497,0.673084254670225,0.659740754860846,0.644954819277108,0.657222222222222,0.659474671669794,0.650415721844293,0.68442932728647
0,0.632089552238806,0.670546558704453,0.590643825301205,0.6170089112747,0.631212349397591,0.656141030608292,0.640297369424324,0.648648648648649,0.657779886148007,0.679756004574914,0.598952487841377,0.672026346377373,0.639670492410218,0.720872865275142
0,0.558479532163743,0.628669639539205,0.627384960718294,0.683858998144713,0.709372637944067,0.61671686746988,0.691379310344828,0.617724867724868,0.710144927536232,0.278155706727135,0.594104308390023,0.575609756097561,0.615708812260537,0.68682745825603
0,0.653824626865672,0.642145593869732,0.662340178225494,0.658132530120483,0.692527640106748,0.698418674698795,0.639054355919583,0.710063598952488,0.736363636363637,0.609774157719363,0.583612040133779,0.639903653151345,0.665925925925926,0.701463790446842
0,0.639146567717997,0.288219595882577,0.581254724111867,0.64953095684803,0.672865275142315,0.651154132539092,0.601782363977486,0.641044776119403,0.643335815338794,0.625283446712019,0.638795986622074,0.692527640106748,0.695660306771418,0.692743764172336
0,0.660790391321193,0.700057186427754,0.565512048192771,0.626926040061634,0.649259259259259,0.634006862371331,0.585589020205871,0.638992537313433,0.622388059701493,0.64721706864564,0.670311341734618,0.648148148148148,0.433528265107212,0.698259903739356
0,0.528312788906009,0.644249512670565,0.614641397250093,0.703238866396761,0.578845408756296,0.577683068578071,0.678652108433735,0.671744324970131,0.738526119402985,0.726280120481928,0.605919583023083,0.664717348927875,0.516195085629188,0.617846385542169
0,0.627739984882842,0.739587242026266,0.700309957380861,0.651544033549371,0.57,0.574853801169591,0.675848265345025,0.631965361445783,0.664887533358749,0.620495931809376,0.602221385542169,0.593373493975903,0.605413648494091,0.667962962962963
0,0.67911877394636,0.657407407407408,0.733920960867881,0.564833400240867,0.64901185770751,0.669501133786848,0.651481481481482,0.610637509266123,0.719734345351044,0.634920634920635,0.643228200371058,0.636675562333206,0.577294685990338,0.623299319727892
0,0.718185240963856,0.629908501715593,0.610820895522388,0.722325064790818,0.678898208158597,0.686224489795919,0.628576807228916,0.580769230769231,0.687263794406652,0.707818930041152,0.723789553945863,0.669793621013134,0.735282651072124,0.519814814814815
0,0.65422138836773,0.612618595825427,0.65195895522388,0.657567771084337,0.647590361445783,0.63718820861678,0.739834337349398,0.66280834914611,0.573325851103629,0.699359939759037,0.692409867172675,0.724412584627638,0.66208380097269,0.625
0,0.640793528505394,0.674523007856341,0.690796857463524,0.533320418442464,0.710908413998511,0.705893682588598,0.714043674698795,0.659977703455965,0.67251239039268,0.692865105908584,0.621832358674464,0.696050642479214,0.665925925925926,0.524154589371981
0,0.716610549943884,0.657690817512592,0.604655870445344,0.550167224080268,0.634977409638554,0.609084139985108,0.666214645486246,0.686336559940432,0.655028462998102,0.686151771956857,0.542356927710843,0.615111940298507,0.633408919123205,0.63740671641791
0,0.607492469879518,0.62088115512773,0.730515463917526,0.324628288219596,0.541366223908918,0.664083688492832,0.714446529080675,0.667068198665678,0.734186746987952,0.353685778108712,0.642350746268657,0.623489278752436,0.649944258639911,0.636566332218506
0,0.642578849721707,0.660631741140216,0.646153846153846,0.682163187855787,0.685832025117739,0.556852409638554,0.589981447124304,0.683649748159628,0.743411144578314,0.705977229601518,0.633102766798419,0.725328330206379,0.742367833209233,0.66082434514638
0,0.647212869435092,0.583012326656395,0.666039156626506,0.627037037037038,0.605442176870748,0.61734693877551,0.645019157088123,0.25397132894227,0.677229601518027,0.633597883597884,0.743643263757115,0.294335431321733,0.64765478424015,0.684701492537313
0,0.646649096385542,0.643274853801169,0.635177865612648,0.694402985074627,0.730354391371341,0.678937381404174,0.655069210624766,0.726454033771107,0.683259735046166,0.601724137931034,0.653640869233702,0.635615413393191,0.654127579737336,0.700018825301205
0,0.699925539836188,0.672390891840607,0.719972878729175,0.575994054254924,0.655938697318008,0.636859939759036,0.601556708673091,0.635205097570689,0.567442794058611,0.676053639846743,0.65688775510204,0.621481481481482,0.604841784216546,0.728956228956229
0,0.640704644344887,0.633472420128895,0.646702281864089,0.623464707453633,0.649258015183373,0.645974007674762,0.649791188938317,0.630534375278351,0.671834370464649,0.628947995741822,0.640991868068194,0.631899782943062,0.631005541357985,0.656305713686803
Classifier9
0,0.540307635285397,0.517933723196881,0.563339920948617,0.52027027027027,0.619005847953216,0.553099017384732,0.481510015408321,0.517821585025886,0.57910789172703,0.505759940542549,0.546988181471597,0.624398370973713,0.582092330603127,0.542545180722892
0,0.509233239662786,0.512686567164179,0.575633528265107,0.456137048192771,0.59573055028463,0.545711500974659,0.587685855890202,0.595435285053929,0.607796416317194,0.487048665620094,0.568085516178737,0.556972789115646,0.527484939759036,0.573758339510749
0,0.548237117396358,0.564620663362562,0.559712773998488,0.592409867172675,0.525595681310499,0.538059701492537,0.566591844369622,0.488943957300801,0.516012199771254,0.577748493975904,0.561018518518519,0.531519699812383,0.592214663643235,0.595804988662131
0,0.676026119402985,0.583603238866397,0.570030120481928,0.618558698179,0.638177710843373,0.576714451762883,0.572531452535265,0.504998148833765,0.550284629981025,0.59778879146016,0.594650205761317,0.654784967067028,0.661421695668271,0.589943074003795
0,0.527972709551657,0.580917874396135,0.515712682379349,0.567996289424861,0.619897959183674,0.58960843373494,0.544540229885057,0.569066515495087,0.585562987736901,0.571334089191232,0.55489417989418,0.544934333958724,0.546168582375479,0.589703153988868
0,0.599720149253731,0.6772030651341,0.61458736923673,0.665097891566265,0.516393442622951,0.612010542168675,0.601917349218168,0.580246913580247,0.477736549165121,0.564975934838949,0.555741360089186,0.550682456844641,0.605740740740741,0.521090138674884
0,0.60417439703154,0.588162409454823,0.54119425547997,0.525234521575985,0.552941176470588,0.625093075204765,0.468574108818011,0.568563432835821,0.625744601638124,0.547619047619048,0.568561872909699,0.550800609988563,0.563131313131313,0.567365835222978
0,0.478206121658272,0.519348074723599,0.546027861445783,0.564714946070878,0.56787037037037,0.572150209683568,0.594357605794891,0.542350746268657,0.588059701492537,0.519944341372913,0.592197924388436,0.692649281934996,0.590155945419103,0.59598296927064
0,0.584167950693374,0.578362573099415,0.57924563359346,0.550708502024291,0.624467260751647,0.581363812475785,0.477597891566265,0.633512544802867,0.558861940298507,0.60523343373494,0.58469843633656,0.557407407407407,0.622580044676098,0.528143825301205
0,0.450018896447468,0.506285178236398,0.534289035257652,0.682805947388486,0.545555555555556,0.496686159844055,0.616279069767442,0.561088102409639,0.521540221120854,0.510461061604029,0.608527861445783,0.542262801204819,0.597598170034312,0.64787037037037
0,0.635919540229885,0.566872427983539,0.582138705927935,0.56985146527499,0.601284584980237,0.548563869992441,0.559722222222222,0.55031504818384,0.596584440227704,0.669973544973545,0.538589981447124,0.613991612657263,0.609253065774805,0.567743764172336
0,0.554028614457831,0.596263820053374,0.543563432835821,0.572843391336542,0.549847502859321,0.602324263038549,0.553369728915663,0.475202429149798,0.578325774754346,0.641788252899364,0.568242470453679,0.587523452157598,0.493372319688109,0.514166666666667
0,0.560975609756098,0.545540796963947,0.570708955223881,0.541698042168675,0.570689006024096,0.535997732426304,0.548098644578313,0.568595825426945,0.638701833146278,0.583584337349398,0.598956356736243,0.554062126642772,0.60082304526749,0.567911877394636
0,0.560959167950693,0.564440703329592,0.605312383090161,0.617686943045331,0.562639612807148,0.542180277349769,0.567959337349398,0.544314381270903,0.623713305375524,0.548680787811223,0.531091617933723,0.578892668178382,0.61212962962963,0.55248978075065
0,0.551533857089413,0.568190623789229,0.552732793522267,0.574600520252694,0.519860692771084,0.564594192107223,0.559957380860132,0.630956813104989,0.573055028462998,0.609206471494607,0.5625,0.599160447761194,0.540343915343915,0.529011194029851
0,0.646554969879518,0.567197334320622,0.488556701030928,0.546511627906977,0.534535104364326,0.575164664858582,0.589493433395872,0.613695329873981,0.644201807228916,0.540208488458675,0.585167910447761,0.532846003898635,0.531122259383129,0.553604607952434
0,0.566048237476809,0.521956856702619,0.521951219512195,0.51707779886148,0.722919937205651,0.565982680722892,0.499443413729128,0.554533126695079,0.647872740963855,0.541081593927894,0.551086956521739,0.553001876172608,0.583116157855547,0.546995377503852
0,0.521137298915077,0.609206471494607,0.550169427710843,0.566018518518518,0.540249433106576,0.601568405139834,0.491091954022988,0.634831460674157,0.591745730550285,0.582199546485261,0.62988614800759,0.481488337652721,0.588930581613508,0.567350746268657
0,0.49011671686747,0.585672514619883,0.553063241106719,0.636380597014925,0.609013867488444,0.537381404174573,0.533857089412645,0.625609756097561,0.594841429144922,0.635153256704981,0.60379336637438,0.584642723531612,0.598311444652908,0.502635542168675
0,0.567758749069248,0.547343453510436,0.52566834560248,0.550724637681159,0.587452107279693,0.569182981927711,0.537620459599704,0.620071684587814,0.574668807707748,0.605555555555556,0.592621664050236,0.550185185185185,0.64944719786504,0.600355405910961
0,0.558654854903781,0.565090418520117,0.554681919332516,0.571866376196339,0.580206370211654,0.566671868823224,0.547609954366965,0.569007654333588,0.583720901840556,0.572267281781016,0.574865026448324,0.572110357607295,0.58477190215624,0.562723641927362
Classifier10
0,0.537435137138621,0.552534113060429,0.584090909090909,0.644946316179193,0.653313840155946,0.556972789115646,0.551810477657935,0.600557546794106,0.626286694624476,0.60776662950576,0.648780022874571,0.660496112550907,0.588607594936709,0.620387801204819
0,0.618125250903252,0.560261194029851,0.635282651072124,0.563253012048193,0.664136622390892,0.600877192982456,0.632291269538696,0.644934514637905,0.652973694243233,0.54719387755102,0.590909090909091,0.573507180650038,0.615210843373494,0.589047442550037
0,0.614199922510655,0.625714830346931,0.647392290249433,0.665370018975332,0.57427401340283,0.599253731343283,0.602038907594463,0.61208539839878,0.585017155928326,0.597609186746988,0.577592592592593,0.595497185741088,0.5609410430839,0.625094482237339
0,0.619776119402985,0.631376518218623,0.534826807228916,0.651104223169314,0.589231927710843,0.614296784192174,0.577201677468548,0.607922991484635,0.624478178368121,0.649256576439192,0.63757949869061,0.621755133669121,0.643928174750093,0.689563567362429
0,0.595126705653022,0.680509104422148,0.58576505798728,0.614656771799629,0.622354497354497,0.649943524096386,0.615421455938697,0.615551776266062,0.641954663693795,0.652210884353742,0.609032501889645,0.586772983114447,0.634770114942529,0.642300556586271
0,0.618843283582089,0.658045977011494,0.590759395583107,0.65625,0.593690430804423,0.604103915662651,0.639147431124349,0.65712682379349,0.615120593692022,0.557478711588301,0.593738387216648,0.618827780008029,0.623981481481482,0.616814329738059
0,0.596196660482375,0.649733130003812,0.60515873015873,0.565666041275797,0.594117647058823,0.673306031273269,0.5406191369606,0.588059701492537,0.594099032017871,0.574452003023432,0.615849126718692,0.646111322912695,0.646090534979424,0.558956916099773
0,0.528380472685006,0.560903545558521,0.564947289156627,0.632896764252697,0.618703703703704,0.550419367136866,0.591307662981319,0.591511194029851,0.594962686567164,0.606215213358071,0.649647887323944,0.676398337112623,0.592300194931774,0.570992225101814
0,0.620281201848999,0.614912280701754,0.625139353400223,0.640587044534413,0.673285548237118,0.633184812088338,0.564006024096386,0.634707287933094,0.623507462686567,0.658414909638555,0.579672375279226,0.572222222222222,0.637379002233805,0.571630271084338
0,0.545351473922903,0.638461538461538,0.635703215807827,0.627239801753717,0.53712962962963,0.622514619883041,0.625714830346931,0.595161897590362,0.582253145253527,0.546784192173576,0.633377259036145,0.610692771084337,0.597407548608464,0.665370370370371
0,0.631704980842912,0.657126823793491,0.637737311119721,0.542653552790044,0.628754940711463,0.580215419501134,0.610185185185185,0.522238695329874,0.680075901328273,0.596182917611489,0.599536178107607,0.609702630575677,0.641675956893349,0.599678760393046
0,0.645331325301205,0.592070148684712,0.624253731343284,0.635597926693817,0.560331681280976,0.638605442176871,0.601374246987952,0.495951417004049,0.633408919123205,0.677609427609428,0.584826534502478,0.628705440900563,0.567446393762183,0.575740740740741
0,0.559662288930582,0.580550284629981,0.60839552238806,0.627729668674699,0.604574548192771,0.564436885865457,0.583772590361446,0.569924098671727,0.639450056116723,0.625658885542169,0.637950664136622,0.598864994026284,0.599139543583988,0.583141762452107
0,0.601309707241911,0.602506546950991,0.641040029928919,0.696822936846184,0.594471332836932,0.638578582434515,0.646272590361446,0.569769602378298,0.674227983225315,0.595782237086585,0.666959064327485,0.627173091458806,0.670648148148148,0.531958379784467
0,0.593901982790872,0.613425029058504,0.57165991902834,0.609717577108881,0.592338102409639,0.644173492181683,0.623498643936459,0.642405063291139,0.599335863377609,0.592161016949152,0.642225150602409,0.604850746268657,0.606481481481481,0.596175373134328
0,0.663874246987952,0.605053683820807,0.600618556701031,0.626858558902021,0.594876660341556,0.647326617590082,0.640431519699812,0.627594514455152,0.703219126506024,0.555379746835443,0.616044776119403,0.594834307992202,0.563730955035303,0.638888888888889
0,0.612708719851577,0.542180277349769,0.631801125703565,0.606072106261859,0.699175824175824,0.605421686746988,0.57847866419295,0.593180937621077,0.673098644578313,0.615275142314991,0.601383399209486,0.633020637898687,0.616530156366344,0.598998459167951
0,0.601571268237935,0.629526194144838,0.599585843373494,0.586944444444444,0.57775888133031,0.556122448979592,0.589942528735632,0.619139868268113,0.60853889943074,0.654950869236584,0.665085388994307,0.623565346168086,0.572045028142589,0.623134328358209
0,0.585749246987952,0.624561403508772,0.627766798418972,0.729850746268656,0.685381355932204,0.651043643263757,0.59652076318743,0.642213883677298,0.587515054195102,0.662452107279694,0.692718261532596,0.660119715675271,0.60984990619137,0.608810240963856
0,0.614110201042443,0.548102466793169,0.608678806664084,0.575622445187663,0.636590038314176,0.581137048192771,0.611842105263158,0.680804460374352,0.62946607788037,0.66772030651341,0.601354003139717,0.664259259259259,0.63791460160122,0.657126823793491
0,0.600182009817262,0.608377754527507,0.608030167220232,0.624991997858328,0.614724561298728,0.610596701735348,0.60109388558097,0.605542083674595,0.628449491641839,0.612027742067879,0.622213108160164,0.62036885996445,0.611303935226382,0.608190586000617
Classifier11
0,0.575055596738325,0.600194931773879,0.624308300395257,0.679192891521659,0.645614035087719,0.715986394557824,0.64175654853621,0.588610115491836,0.670224933282501,0.651430694908956,0.661837590545178,0.689189189189189,0.63644825018615,0.642319277108434
0,0.568044961862706,0.646082089552239,0.632163742690058,0.603915662650602,0.658823529411764,0.632163742690058,0.693099504384293,0.635015408320493,0.679946626000762,0.654042386185243,0.665639445300462,0.624716553287982,0.728727409638554,0.637323943661972
0,0.678806664083689,0.624475791078917,0.611678004535148,0.682922201138519,0.60331347728965,0.630037313432836,0.588851477740367,0.722264582539078,0.643728555089592,0.611634036144578,0.650740740740741,0.65797373358349,0.634920634920635,0.67233560090703
0,0.686380597014925,0.626113360323886,0.615022590361446,0.603448275862069,0.618599397590362,0.65226656334754,0.638581776591689,0.676231025546094,0.644592030360531,0.670606176134198,0.613355780022447,0.652847733436653,0.645871899296557,0.699240986717267
0,0.659649122807017,0.645299145299145,0.609614665170221,0.682003710575139,0.680272108843538,0.678463855421687,0.661111111111111,0.686318972033258,0.692121887774062,0.710128495842782,0.641534391534392,0.661538461538462,0.676053639846743,0.730055658627087
0,0.642910447761194,0.633908045977011,0.656141030608291,0.633471385542169,0.678231033168128,0.711596385542169,0.670886075949368,0.672091283202394,0.715027829313544,0.640503517215846,0.689334819769603,0.663588920112405,0.642407407407408,0.689907550077042
0,0.686270871985158,0.666031261913839,0.678193499622071,0.608255159474672,0.651802656546489,0.698064035740879,0.592682926829268,0.603171641791044,0.623417721518988,0.592214663643235,0.623002601263471,0.673084254670225,0.696221473999252,0.695767195767196
0,0.646842309182487,0.670796797560045,0.682605421686747,0.652542372881356,0.657407407407407,0.641631719405261,0.730651925276402,0.618843283582089,0.661940298507462,0.623191094619666,0.648257968865827,0.684618291761149,0.665302144249512,0.721214365049981
0,0.627696456086287,0.600584795321637,0.634336677814939,0.665384615384615,0.712901975978303,0.652460286710577,0.66453313253012,0.647152528872958,0.730597014925373,0.67394578313253,0.625837676842889,0.699610136452242,0.609270290394639,0.640436746987952
0,0.625283446712018,0.724390243902439,0.678612940720651,0.646778497903165,0.555185185185185,0.597855750487329,0.621044605413648,0.707078313253012,0.647540983606557,0.603448275862069,0.698042168674699,0.609186746987952,0.598741898589402,0.645925925925926
0,0.654406130268199,0.639543583988029,0.691204959318094,0.612806101967082,0.626482213438735,0.630385487528345,0.676111111111111,0.597479614529281,0.660531309297913,0.619425547996976,0.604267161410019,0.621044605413648,0.638052768487551,0.617913832199547
0,0.705384036144578,0.60770110560427,0.658022388059702,0.726027397260274,0.630956919557759,0.673658352229781,0.618034638554217,0.579352226720648,0.685185185185185,0.71754582865694,0.695196340068624,0.66266416510319,0.731968810916179,0.64962962962963
0,0.622326454033771,0.637571157495256,0.626865671641791,0.657191265060241,0.665850903614458,0.619047619047619,0.704066265060241,0.645351043643264,0.677890011223345,0.698230421686747,0.667931688804554,0.710274790919952,0.649457538346427,0.611494252873563
0,0.633474576271187,0.670594837261504,0.662364384586607,0.678806664083689,0.708116157855547,0.683744221879815,0.726656626506024,0.660906726124117,0.65383149065955,0.690821256038648,0.687524366471734,0.659108087679516,0.715925925925926,0.606651802303976
0,0.69304152637486,0.641224331654398,0.604655870445344,0.654775176514307,0.64269578313253,0.587862993298585,0.654203796977916,0.674609084139986,0.630170777988615,0.668528505392913,0.681852409638554,0.598507462686567,0.63114134542706,0.643470149253731
0,0.640625,0.649759348389485,0.703711340206185,0.720358368280595,0.678368121442125,0.696629213483146,0.71313320825516,0.644180874722017,0.709713855421687,0.674050632911392,0.662686567164179,0.703118908382066,0.638424377554812,0.651059085841695
0,0.635807050092765,0.663135593220339,0.699999999999999,0.705313092979127,0.674646781789639,0.672816265060241,0.58126159554731,0.670089112746997,0.726656626506024,0.717457305502846,0.620158102766799,0.713508442776736,0.727848101265823,0.617103235747304
0,0.624953236064347,0.630585516178737,0.667921686746988,0.617037037037037,0.579176114890401,0.692932728647014,0.687739463601533,0.739248353351414,0.681593927893739,0.626795162509448,0.707779886148007,0.689189189189189,0.627579737335835,0.641417910447761
0,0.689382530120482,0.618323586744639,0.664624505928854,0.673880597014925,0.715909090909091,0.64212523719165,0.657126823793491,0.69812382739212,0.686069851465275,0.657662835249042,0.694243232939383,0.672652450430228,0.722514071294559,0.689194277108434
0,0.728778853313477,0.641935483870967,0.703796977915537,0.555555555555556,0.614176245210728,0.633847891566265,0.601742031134174,0.631222620469932,0.647531112003212,0.66455938697318,0.656789638932496,0.639074074074074,0.686618375905452,0.722222222222222
0,0.651255993345874,0.641912550355533,0.655292232922696,0.65298330143434,0.649926456917478,0.657178802863431,0.656163732245183,0.654867031923602,0.673415601401196,0.658311100330362,0.659800628895203,0.664274809883746,0.665174805049424,0.661234182422887
Classifier12
0,0.575055596738325,0.600194931773879,0.624308300395257,0.679192891521659,0.645614035087719,0.715986394557824,0.64175654853621,0.588610115491836,0.670224933282501,0.651430694908956,0.661837590545178,0.689189189189189,0.63644825018615,0.642319277108434
0,0.568044961862706,0.646082089552239,0.632163742690058,0.603915662650602,0.658823529411764,0.632163742690058,0.693099504384293,0.635015408320493,0.679946626000762,0.654042386185243,0.665639445300462,0.624716553287982,0.728727409638554,0.637323943661972
0,0.678806664083689,0.624475791078917,0.611678004535148,0.682922201138519,0.60331347728965,0.630037313432836,0.588851477740367,0.722264582539078,0.643728555089592,0.611634036144578,0.650740740740741,0.65797373358349,0.634920634920635,0.67233560090703
0,0.686380597014925,0.626113360323886,0.615022590361446,0.603448275862069,0.618599397590362,0.65226656334754,0.638581776591689,0.676231025546094,0.644592030360531,0.670606176134198,0.613355780022447,0.652847733436653,0.645871899296557,0.699240986717267
0,0.659649122807017,0.645299145299145,0.609614665170221,0.682003710575139,0.680272108843538,0.678463855421687,0.661111111111111,0.686318972033258,0.692121887774062,0.710128495842782,0.641534391534392,0.661538461538462,0.676053639846743,0.730055658627087
0,0.642910447761194,0.633908045977011,0.656141030608291,0.633471385542169,0.678231033168128,0.711596385542169,0.670886075949368,0.672091283202394,0.715027829313544,0.640503517215846,0.689334819769603,0.663588920112405,0.642407407407408,0.689907550077042
0,0.686270871985158,0.666031261913839,0.678193499622071,0.608255159474672,0.651802656546489,0.698064035740879,0.592682926829268,0.603171641791044,0.623417721518988,0.592214663643235,0.623002601263471,0.673084254670225,0.696221473999252,0.695767195767196
0,0.646842309182487,0.670796797560045,0.682605421686747,0.652542372881356,0.657407407407407,0.641631719405261,0.730651925276402,0.618843283582089,0.661940298507462,0.623191094619666,0.648257968865827,0.684618291761149,0.665302144249512,0.721214365049981
0,0.627696456086287,0.600584795321637,0.634336677814939,0.665384615384615,0.712901975978303,0.652460286710577,0.66453313253012,0.647152528872958,0.730597014925373,0.67394578313253,0.625837676842889,0.699610136452242,0.609270290394639,0.640436746987952
0,0.625283446712018,0.724390243902439,0.678612940720651,0.646778497903165,0.555185185185185,0.597855750487329,0.621044605413648,0.707078313253012,0.647540983606557,0.603448275862069,0.698042168674699,0.609186746987952,0.598741898589402,0.645925925925926
0,0.654406130268199,0.639543583988029,0.691204959318094,0.612806101967082,0.626482213438735,0.630385487528345,0.676111111111111,0.597479614529281,0.660531309297913,0.619425547996976,0.604267161410019,0.621044605413648,0.638052768487551,0.617913832199547
0,0.705384036144578,0.60770110560427,0.658022388059702,0.726027397260274,0.630956919557759,0.673658352229781,0.618034638554217,0.579352226720648,0.685185185185185,0.71754582865694,0.695196340068624,0.66266416510319,0.731968810916179,0.64962962962963
0,0.622326454033771,0.637571157495256,0.626865671641791,0.657191265060241,0.665850903614458,0.619047619047619,0.704066265060241,0.645351043643264,0.677890011223345,0.698230421686747,0.667931688804554,0.710274790919952,0.649457538346427,0.611494252873563
0,0.633474576271187,0.670594837261504,0.662364384586607,0.678806664083689,0.708116157855547,0.683744221879815,0.726656626506024,0.660906726124117,0.65383149065955,0.690821256038648,0.687524366471734,0.659108087679516,0.715925925925926,0.606651802303976
0,0.69304152637486,0.641224331654398,0.604655870445344,0.654775176514307,0.64269578313253,0.587862993298585,0.654203796977916,0.674609084139986,0.630170777988615,0.668528505392913,0.681852409638554,0.598507462686567,0.63114134542706,0.643470149253731
0,0.640625,0.649759348389485,0.703711340206185,0.720358368280595,0.678368121442125,0.696629213483146,0.71313320825516,0.644180874722017,0.709713855421687,0.674050632911392,0.662686567164179,0.703118908382066,0.638424377554812,0.651059085841695
0,0.635807050092765,0.663135593220339,0.699999999999999,0.705313092979127,0.674646781789639,0.672816265060241,0.58126159554731,0.670089112746997,0.726656626506024,0.717457305502846,0.620158102766799,0.713508442776736,0.727848101265823,0.617103235747304
0,0.624953236064347,0.630585516178737,0.667921686746988,0.617037037037037,0.579176114890401,0.692932728647014,0.687739463601533,0.739248353351414,0.681593927893739,0.626795162509448,0.707779886148007,0.689189189189189,0.627579737335835,0.641417910447761
0,0.689382530120482,0.618323586744639,0.664624505928854,0.673880597014925,0.715909090909091,0.64212523719165,0.657126823793491,0.69812382739212,0.686069851465275,0.657662835249042,0.694243232939383,0.672652450430228,0.722514071294559,0.689194277108434
0,0.728778853313477,0.641935483870967,0.703796977915537,0.555555555555556,0.614176245210728,0.633847891566265,0.601742031134174,0.631222620469932,0.647531112003212,0.66455938697318,0.656789638932496,0.639074074074074,0.686618375905452,0.722222222222222
0,0.651255993345874,0.641912550355533,0.655292232922696,0.65298330143434,0.649926456917478,0.657178802863431,0.656163732245183,0.654867031923602,0.673415601401196,0.658311100330362,0.659800628895203,0.664274809883746,0.665174805049424,0.661234182422887
