Classifier1
0,0.498481973434535,0.516567937800814,0.474720149253731,0.550189753320683,0.567838246409675,0.550281425891182,0.550462249614792,0.482929104477612,0.552706824247045,0.48759328358209,0.484504913076342,0.531215161649944,0.574484052532833,0.471455223880597
0,0.542537313432836,0.557971014492754,0.458582089552239,0.481414410979794,0.540850903614458,0.495445920303605,0.475806451612903,0.57615268329554,0.557010785824345,0.559473884864659,0.424017790956264,0.561290322580645,0.532649253731343,0.475862068965517
0,0.534958427815571,0.484315948601663,0.45,0.546106160402945,0.549508692365835,0.530496987951807,0.459243222891566,0.407692307692308,0.519829222011385,0.536510590858417,0.551724137931034,0.421537602382725,0.495811615785555,0.519328885400314
0,0.4646110056926,0.441638608305275,0.569916855631141,0.514495481927711,0.482761941448382,0.541838649155722,0.466485858194498,0.495184899845917,0.459683794466403,0.50206043956044,0.571428571428571,0.562570145903479,0.568574108818011,0.580687830687831
0,0.458063286313382,0.59582078313253,0.46875,0.479794128860084,0.525696536144578,0.569016697588126,0.506991685563114,0.52066269545793,0.489403453689168,0.491246234939759,0.58168880455408,0.549691833590139,0.513097072419106,0.546630677587491
0,0.548518518518519,0.579545454545455,0.460805084745763,0.503240740740741,0.488015607580825,0.511940022213995,0.436527057079318,0.462333965844402,0.452439024390244,0.584938366718028,0.472011385199241,0.521367521367521,0.54146110056926,0.483154387263976
0,0.4572940287226,0.546310240963855,0.493451463790447,0.504738015607581,0.541271347248577,0.512377173091459,0.522084463386284,0.506481481481481,0.553650852483321,0.500188253012048,0.477667984189723,0.589210827296988,0.475028593213877,0.62741935483871
0,0.510960731986275,0.448767334360555,0.434440227703985,0.55787037037037,0.563064759036145,0.539519566059667,0.555555555555556,0.568955942243613,0.495361781076067,0.492647058823529,0.445974576271186,0.565711462450593,0.520303605313093,0.546258376768429
0,0.489517625231911,0.538617103235747,0.531643156690812,0.431716417910448,0.494090735798704,0.488984674329502,0.575186567164179,0.408045977011494,0.546027861445783,0.551820999612553,0.446822936846184,0.591208584337349,0.539965331278891,0.567153011597456
0,0.566362620997766,0.496319256102286,0.494281357224552,0.558698179000387,0.544781783681214,0.545614035087719,0.587429643527204,0.524478778853314,0.49551656920078,0.553130929791271,0.490659550133435,0.504310344827586,0.480474882260597,0.547318007662835
0,0.516774685474647,0.487962249614792,0.487835249042146,0.556570030120482,0.536402157164869,0.561473880597015,0.450281425891182,0.557417168674699,0.482272207396111,0.492392141756549,0.500465376023827,0.553052866716307,0.529087167976057,0.513567362428842
0,0.429756004574914,0.422669491525424,0.522134387351779,0.502751423149905,0.5182350718065,0.536849981294426,0.569653614457831,0.5010181414291,0.498467432950192,0.485877291432847,0.519470092332397,0.485637509266123,0.593348450491308,0.527735417460923
0,0.513122605363985,0.549814471243043,0.556878306878307,0.510381593714927,0.499152861445783,0.528734395178648,0.493150684931507,0.502118644067797,0.467738828967642,0.538215361445783,0.492030360531309,0.542177629134151,0.471175373134328,0.589210827296988
0,0.466423494201272,0.51805087916199,0.478208005985784,0.498178137651822,0.523194912083801,0.498748073959938,0.502739984882842,0.554998141954664,0.478930461073318,0.574253731343284,0.563492063492063,0.537037037037037,0.543838421444527,0.506548536209553
0,0.551277163553183,0.56134437596302,0.511432350718065,0.541761148904006,0.528722600151171,0.492375753012048,0.55979266938171,0.527969348659004,0.561276355421687,0.468373493975904,0.540972491282449,0.50561797752809,0.513133030990174,0.535150231124807
0,0.456061761341975,0.46456400742115,0.459514925373134,0.459576138147567,0.576644370122631,0.539571150097466,0.514656771799629,0.536485480268057,0.535768500948767,0.578571428571429,0.539373814041746,0.460296846011132,0.495670180722892,0.457097850259451
0,0.547349888806523,0.525321239606954,0.566362620997766,0.534870205346765,0.524780785360275,0.538992537313433,0.535211267605634,0.521043771043771,0.480409356725146,0.492641287284144,0.519103313840156,0.579644268774704,0.53921200750469,0.480555555555556
0,0.502096835684331,0.557386153276564,0.541666666666667,0.564018319394664,0.539468761690984,0.541838649155722,0.519731800766283,0.586730911786508,0.551573078454799,0.546485260770975,0.546455938697318,0.451833146277591,0.456391875746714,0.524036662925552
0,0.540322580645161,0.486714975845411,0.473625140291807,0.469785575048733,0.572877885331348,0.488235294117647,0.507617985878855,0.568569310600445,0.542549238201412,0.478208005985784,0.48497688751926,0.553700189753321,0.487476280834915,0.531799476243921
0,0.457995951417004,0.487711069418386,0.540132827324478,0.488963711185933,0.52859321387724,0.577611940298507,0.488899253731343,0.48870788596816,0.526944971537002,0.486772983114447,0.469762845849802,0.513122605363985,0.534344750558451,0.556546489563567
0,0.50262432516045,0.513370629730883,0.49871904326113,0.512755997089277,0.53229765861815,0.529497340334882,0.513875410695812,0.514898832032791,0.512378030025531,0.520070051372197,0.506130191709819,0.529011694112471,0.520276357766331,0.529375811686116
Classifier2
0,0.5,0.520547945205479,0.5,0.5,0.571428571428571,0.532363977485929,0.5,0.517350746268657,0.54336637438048,0.504850746268657,0.521825396825397,0.5,0.5,0.5
0,0.522388059701492,0.5,0.522388059701492,0.557377049180328,0.5,0.540322580645161,0.5,0.511904761904762,0.528216486902928,0.551563095691956,0.521590066716086,0.5,0.524813432835821,0.5
0,0.517857142857143,0.5,0.501212686567164,0.5,0.523809523809524,0.5,0.5,0.5,0.5,0.5,0.517241379310345,0.5,0.5,0.508241758241758
0,0.51831119544592,0.5,0.547619047619048,0.525225903614458,0.5,0.5,0.5,0.5,0.536363636363636,0.524725274725275,0.5,0.5,0.5,0.5
0,0.5,0.5,0.517350746268657,0.5,0.5,0.5,0.523809523809524,0.551470588235294,0.5,0.544427710843373,0.5,0.5,0.516949152542373,0.529411764705882
0,0.5,0.5,0.5,0.514722222222222,0.521739130434783,0.513513513513513,0.528169014084507,0.508064516129032,0.5,0.533898305084746,0.500664136622391,0.536231884057971,0.532258064516129,0.52027027027027
0,0.5,0.5,0.547958397534669,0.5,0.5,0.521825396825397,0.53448275862069,0.527777777777778,0.528169014084507,0.5,0.518181818181818,0.545749142203584,0.521158978269157,0.548387096774194
0,0.540983606557377,0.5,0.466698292220114,0.5,0.5,0.520244091437427,0.523809523809524,0.5,0.5,0.5,0.542276579352851,0.5,0.53292220113852,0.5
0,0.542857142857143,0.5,0.535169653069005,0.516138059701493,0.5,0.5,0.5,0.5,0.503576807228916,0.5,0.5,0.5390625,0.528216486902928,0.5
0,0.536764705882353,0.5,0.5,0.537485470747772,0.516129032258065,0.5,0.5,0.553518242740134,0.511988304093567,0.5,0.5,0.5,0.5,0.5
0,0.5,0.525423728813559,0.541666666666667,0.5,0.5,0.544776119402985,0.5,0.5,0.524590163934426,0.533898305084746,0.522058823529412,0.5,0.5,0.512428842504744
0,0.524590163934426,0.516949152542373,0.536363636363636,0.5,0.523809523809524,0.5,0.53125,0.520640503517216,0.516666666666667,0.537878787878788,0.5,0.549295774647887,0.531746031746032,0.553945863515059
0,0.508333333333333,0.5,0.5,0.517957351290685,0.548663403614458,0.5,0.541095890410959,0.5,0.5,0.5234375,0.5,0.5,0.5,0.5
0,0.501402918069585,0.5,0.522727272727273,0.5,0.5165544332211,0.525423728813559,0.53968253968254,0.5,0.517857142857143,0.507462686567164,0.5,0.5,0.507352941176471,0.5
0,0.5,0.525423728813559,0.547619047619048,0.5,0.515873015873016,0.5078125,0.5,0.541666666666667,0.533038403614458,0.5,0.53448275862069,0.5,0.53968253968254,0.514060092449923
0,0.5,0.514935064935065,0.5,0.5,0.5,0.562280701754386,0.514285714285714,0.50837676842889,0.5,0.5,0.516129032258065,0.514285714285714,0.515625,0.529095626389918
0,0.52112676056338,0.523809523809524,0.5,0.5,0.516393442622951,0.529850746268657,0.5,0.5,0.543859649122807,0.508928571428571,0.5,0.5,0.5,0.5
0,0.549180327868853,0.527027027027027,0.511904761904762,0.5,0.5,0.5,0.525,0.5,0.555555555555556,0.5,0.5,0.5,0.527777777777778,0.537878787878788
0,0.504364326375711,0.52257525083612,0.5,0.494444444444444,0.5,0.508064516129032,0.5,0.5,0.536231884057971,0.524130190796857,0.5,0.5,0.5,0.5
0,0.5,0.5,0.520493358633776,0.5,0.5,0.552238805970149,0.537313432835821,0.5,0.5,0.5,0.503656126482213,0.5,0.5,0.5
0,0.514407984172336,0.508834571099135,0.515958581344765,0.50816752506007,0.5127200038536,0.51793583391231,0.514944919876964,0.512038528583421,0.518974004443153,0.514760058718507,0.509905305894963,0.509231250759758,0.513925130329387,0.512686005136527
Classifier3
0,0.454743833017078,0.490188818955942,0.517817164179105,0.555313092979127,0.563869992441421,0.501969981238274,0.548825115562404,0.500652985074627,0.443766679374762,0.488432835820896,0.488567649281935,0.424005945745076,0.523639774859287,0.482089552238806
0,0.551305970149254,0.48197696023783,0.502798507462687,0.476839496759436,0.523155120481928,0.424288425047438,0.460531309297913,0.538454270597128,0.538617103235747,0.532405642394205,0.425037064492217,0.524667931688805,0.495242537313433,0.496168582375479
0,0.495275888133031,0.435374149659864,0.455410447761194,0.497191011235955,0.503212396069539,0.497835090361446,0.40464984939759,0.433208255159475,0.527324478178368,0.469249349684132,0.530995738086013,0.387285927029039,0.452159344750558,0.477335164835165
0,0.513092979127135,0.449307893752338,0.523715041572184,0.498776355421687,0.495281201848999,0.477016885553471,0.425125920185975,0.503852080123267,0.450296442687747,0.435832025117739,0.520408163265306,0.523943135054246,0.519230769230769,0.574357520786092
0,0.425752954632101,0.57238328313253,0.473880597014925,0.514963781929089,0.509224397590362,0.537847866419295,0.512755102040816,0.516753536857781,0.475470957613815,0.477127259036145,0.535863377609108,0.462827426810478,0.490273497688752,0.485852568875652
0,0.454351851851852,0.577865612648222,0.481124807395994,0.437037037037037,0.391490152359718,0.463254350240652,0.46182357301705,0.430645161290323,0.440806754221389,0.456856702619415,0.453795066413662,0.521274619100706,0.471442125237192,0.471214365049981
0,0.491307634164777,0.499246987951807,0.463308936825886,0.47742474916388,0.482258064516129,0.465230536659108,0.456121658271988,0.49,0.450333580429948,0.463855421686747,0.474703557312253,0.467689668318719,0.481890964544415,0.47988614800759
0,0.448913457872665,0.441255778120185,0.464326375711575,0.436296296296296,0.489457831325301,0.488667183262302,0.441137566137566,0.52027027027027,0.46113172541744,0.450367647058823,0.457530816640986,0.503458498023716,0.463567362428842,0.562081161578556
0,0.480705009276438,0.512808166409862,0.554708349218452,0.416884328358209,0.423370186808997,0.487739463601533,0.503451492537313,0.45823754789272,0.471385542168675,0.499709414955444,0.488667183262301,0.505365210843374,0.509726502311248,0.449775533108867
0,0.506794489947878,0.482855482371174,0.452154022112085,0.530414567996901,0.464136622390892,0.477192982456141,0.548686679174484,0.50716679076694,0.462962962962963,0.560815939278937,0.485894014487228,0.514463601532567,0.409340659340659,0.454597701149425
0,0.496473503621807,0.497496147919877,0.493965517241379,0.523625753012048,0.522630970724191,0.464272388059701,0.46125703564728,0.533509036144578,0.522112085398399,0.489310477657935,0.443224125093075,0.520290394638868,0.461840628507295,0.498481973434535
0,0.501239039268014,0.494510785824345,0.481620553359684,0.486432637571157,0.471749811035525,0.484380845491957,0.574736445783133,0.451314328026657,0.475287356321839,0.41788252899364,0.480128462464874,0.526130467012602,0.472127739984883,0.49399542508578
0,0.460249042145594,0.544712430426716,0.506991685563114,0.414983164983165,0.537368222891566,0.476431338786053,0.515549796371714,0.468509244992296,0.458301232665639,0.51308358433735,0.523339658444023,0.438963210702341,0.477705223880597,0.540507052992756
0,0.400205761316873,0.55331088664422,0.486812570145904,0.554959514170041,0.527216610549944,0.499036979969183,0.509637188208617,0.524061687105165,0.508881330309902,0.436100746268657,0.522392290249433,0.534502923976608,0.490134028294862,0.443374422187982
0,0.467499046892871,0.467353620955316,0.489701436130008,0.486205593348451,0.501417233560091,0.518260542168675,0.546741947426879,0.465325670498084,0.54273343373494,0.455948795180723,0.480240216970167,0.506489732661759,0.493291761148904,0.500481510015408
0,0.42365611894777,0.465862708719852,0.419496268656717,0.516385400313972,0.49108138238573,0.523684210526316,0.489053803339518,0.477755026061057,0.475806451612903,0.610575139146568,0.516318785578748,0.46948051948052,0.523814006024096,0.44968495181616
0,0.5162157153447,0.475245653817082,0.538067758749069,0.441398682681131,0.505242089210827,0.521361940298507,0.511767976278725,0.437616909839132,0.473294346978558,0.516875981161696,0.546101364522417,0.576383399209486,0.469230769230769,0.472413793103448
0,0.504288982081586,0.490188818955942,0.51369992441421,0.478096375945838,0.487934904601571,0.49437148217636,0.501819923371647,0.464510748702743,0.507268020708881,0.481103552532124,0.522413793103448,0.453049008604564,0.462863401035444,0.452300785634119
0,0.497817836812144,0.509011519881085,0.439113355780023,0.447076023391813,0.568596425912137,0.461385199240987,0.476124117428465,0.529929577464789,0.483835005574136,0.468668163112608,0.432395993836672,0.47314990512334,0.519829222011385,0.50364758698092
0,0.468522267206478,0.507692307692308,0.487476280834915,0.460250654695099,0.517918414029737,0.544216417910448,0.467910447761194,0.479266938171048,0.5146110056926,0.480018761726079,0.458794466403162,0.427298850574713,0.502792256142964,0.527324478178368
0,0.477920569090502,0.497432400703825,0.487309480006455,0.482527725864517,0.49883060153673,0.490422205473392,0.490885347362014,0.486552003251904,0.484211324764432,0.485210998388493,0.489340589375851,0.488036018806576,0.484507128698318,0.490778513871754
Classifier4
0,0.471726755218216,0.533135875601629,0.543283582089552,0.522201138519924,0.594954648526077,0.548217636022514,0.541891371340524,0.517723880597015,0.483415935951201,0.555223880597015,0.499905517762661,0.503623188405797,0.521763602251407,0.465951492537313
0,0.54179104477612,0.51662950575994,0.457369402985075,0.489992375142966,0.581513554216867,0.474573055028463,0.510721062618596,0.524281934996221,0.511074730354391,0.509245139153641,0.459229058561898,0.583870967741935,0.548134328358209,0.488505747126437
0,0.521919879062736,0.459183673469388,0.453731343283582,0.512495156915924,0.500472411186697,0.525131777108434,0.458207831325301,0.476829268292683,0.507210626185958,0.529542920847269,0.551046106160403,0.388030528667163,0.528294862248697,0.476648351648352
0,0.573719165085389,0.507482229704452,0.598639455782313,0.479009789156627,0.525423728813559,0.502720450281426,0.461933359163115,0.590331278890601,0.524110671936759,0.425726059654631,0.555844155844156,0.553591470258137,0.493058161350844,0.569349962207105
0,0.464067861227602,0.524849397590361,0.510727611940298,0.526401067479985,0.543015813253012,0.57012987012987,0.557445200302343,0.570457930007446,0.467327315541601,0.511389307228916,0.563092979127135,0.518971494607088,0.49537750385208,0.530528667163068
0,0.510740740740741,0.557213438735178,0.50982280431433,0.469907407407407,0.474358974358974,0.460107367641614,0.468402520385471,0.379316888045541,0.415196998123827,0.467161016949153,0.498861480075901,0.513563730955035,0.503984819734345,0.523694927804517
0,0.464191232048375,0.517601656626506,0.4942218798151,0.481884057971014,0.537381404174573,0.482048374905518,0.48876404494382,0.51962962962963,0.46997776130467,0.498117469879518,0.480237154150198,0.512390392680137,0.455394586351506,0.502751423149905
0,0.516679374761723,0.442989214175655,0.467931688804554,0.426388888888889,0.527390813253012,0.527799302595893,0.419312169312169,0.550999629766753,0.510204081632653,0.436683006535948,0.492777349768875,0.547529644268775,0.522296015180266,0.608339538346984
0,0.574118738404453,0.540254237288136,0.567194052611513,0.44785447761194,0.492470453678994,0.435057471264368,0.561753731343284,0.547222222222222,0.502635542168675,0.518791166214645,0.505327392483534,0.570406626506024,0.51271186440678,0.572484100261878
0,0.510796723752792,0.554726850058117,0.499237514296607,0.568190623789229,0.530645161290323,0.55009746588694,0.542682926829268,0.514054355919583,0.447855750487329,0.587476280834915,0.529069767441861,0.500766283524904,0.530808477237049,0.51676245210728
0,0.548131910026687,0.519260400616333,0.484578544061303,0.492940512048193,0.490851309707242,0.48964552238806,0.459568480300188,0.544898343373494,0.528021349599695,0.470531587057011,0.499255398361876,0.543186895011169,0.503554059109615,0.545540796963947
0,0.580537552420892,0.48382126348228,0.5449604743083,0.562713472485768,0.545823885109599,0.492143658810326,0.601185993975904,0.463439466864124,0.469540229885058,0.463711185933408,0.518968285828984,0.542438843587843,0.477418745275888,0.558330156309569
0,0.49904214559387,0.581354359925788,0.524943310657596,0.466423494201272,0.502917921686747,0.500215238915196,0.455201777119585,0.508281972265023,0.477080123266564,0.562594126506024,0.545445920303605,0.486714975845411,0.538992537313433,0.582634388105223
0,0.468481107369996,0.515151515151515,0.494294799850355,0.536234817813765,0.556584362139918,0.519645608628659,0.584939531368103,0.532515793385359,0.534391534391534,0.473414179104478,0.568783068783069,0.546588693957115,0.556775874906925,0.514926810477658
0,0.498951582157835,0.461768104776579,0.526171579743008,0.443310657596372,0.494614512471655,0.523814006024096,0.570436875231396,0.491187739463602,0.520237198795181,0.457643072289157,0.466098411468423,0.529833397907788,0.507936507936508,0.521571648690293
0,0.469500571864278,0.494897959183673,0.464738805970149,0.481750392464678,0.572277963582311,0.467738791423002,0.503432282003711,0.495625465376024,0.519449715370019,0.581539888682746,0.494022770398482,0.510853432282004,0.516754518072289,0.483691623424759
0,0.556430689399555,0.540721844293273,0.601917349218168,0.429387834172801,0.513534121235227,0.526772388059702,0.521868050407709,0.460063598952488,0.467446393762183,0.554160125588697,0.511988304093567,0.525889328063241,0.510412757973734,0.467432950191571
0,0.453964925657644,0.47408367271381,0.488473167044596,0.527279968140183,0.531518892630004,0.505253283302064,0.536781609195402,0.484803558191253,0.514934289127837,0.518990929705215,0.541091954022988,0.500187055742611,0.436778176025488,0.414796109240554
0,0.486812144212524,0.515700483091787,0.491956603067714,0.449415204678363,0.580416976917349,0.502277039848197,0.480862133036046,0.548091178650853,0.474173169825344,0.500280583613917,0.498940677966102,0.508349146110057,0.559867172675522,0.553404414515526
0,0.476720647773279,0.499155722326454,0.549715370018975,0.490927796483352,0.527640106747999,0.604384328358209,0.502611940298507,0.506756756756757,0.521157495256167,0.524015009380863,0.499110671936759,0.475095785440613,0.567200297840655,0.617647058823529
0,0.509416239577735,0.511999070228543,0.513695466993154,0.490235456648433,0.531190350749007,0.510388631831127,0.511400144525022,0.511325544582333,0.493272045648332,0.507311846787858,0.513954821227024,0.518094094078142,0.514375743405062,0.525749630954773
Classifier5
0,0.528937381404175,0.569418733802295,0.568283582089552,0.583681214421252,0.52891156462585,0.535647279549719,0.614214175654853,0.52294776119403,0.528021349599695,0.501305970149254,0.543556311413454,0.540319583797845,0.573733583489681,0.542723880597015
0,0.564738805970149,0.591787439613527,0.572201492537313,0.608844834159359,0.537462349397591,0.580075901328273,0.529127134724858,0.601284958427816,0.570685670261941,0.495234464353793,0.533172720533729,0.555977229601518,0.558022388059702,0.505842911877395
0,0.486583522297808,0.631519274376417,0.49589552238806,0.550755521115847,0.561602418745276,0.558734939759037,0.509412650602409,0.519512195121951,0.624857685009488,0.550353028613898,0.547074777218133,0.580230826507818,0.523641102010424,0.494996075353218
0,0.549715370018975,0.507856341189675,0.559145880574452,0.528802710843374,0.596494607087828,0.571857410881801,0.514335528864781,0.557203389830509,0.505335968379447,0.514913657770801,0.561410018552876,0.617471006359895,0.593621013133208,0.549697656840514
0,0.517727792603889,0.589796686746988,0.550186567164179,0.555852077773542,0.499246987951807,0.596846011131726,0.573696145124717,0.407855547282204,0.559262166405023,0.531061746987952,0.570967741935484,0.50924499229584,0.525423728813559,0.568689501116903
0,0.536111111111111,0.611660079051384,0.489021571648691,0.524444444444445,0.538647342995169,0.557941503146983,0.591363973313566,0.478747628083492,0.521013133208255,0.531201848998459,0.527514231499051,0.529728725380899,0.476280834914611,0.54183635690485
0,0.544595616024187,0.585278614457831,0.478235747303544,0.523225566703828,0.510626185958254,0.511054421768707,0.585432003099574,0.538518518518519,0.568383988139363,0.588667168674699,0.490909090909091,0.507815478459779,0.515249714067861,0.553130929791271
0,0.604269919939001,0.486806625577812,0.474003795066414,0.507777777777778,0.519954819277109,0.527508717551337,0.541761148904006,0.533506108848574,0.588868274582561,0.502450980392157,0.534957627118644,0.620652173913044,0.542884250474383,0.536950856291884
0,0.521892393320965,0.61691063174114,0.552992756385818,0.494962686567164,0.569767441860465,0.587164750957855,0.464925373134328,0.542528735632184,0.536897590361446,0.572646261139093,0.57690817512592,0.550828313253012,0.525808936825886,0.554059109614665
0,0.487714072970961,0.540391321193336,0.536789935188715,0.605579232855482,0.4853889943074,0.524366471734893,0.600187617260788,0.532204020848846,0.509746588693957,0.549620493358634,0.56481128478841,0.4727969348659,0.550235478806907,0.513984674329502
0,0.573198627525734,0.537365177195686,0.54808429118774,0.622364457831325,0.599768875192604,0.538619402985074,0.585741088180113,0.610881024096385,0.633720930232558,0.503755778120185,0.496649292628444,0.593447505584512,0.581556303778526,0.518975332068311
0,0.52420892108273,0.517719568567026,0.586264822134388,0.563662239089184,0.446712018140589,0.549943883277217,0.490399096385542,0.504257682339874,0.504214559386973,0.539094650205761,0.537334403853874,0.569310600444774,0.560657596371882,0.610179184140297
0,0.541379310344828,0.539888682745825,0.506613756613757,0.502992891881781,0.584149096385542,0.486117089969867,0.560348019252129,0.52253466872111,0.548151001540832,0.509977409638554,0.532258064516129,0.459308807134894,0.56035447761194,0.588638963019444
0,0.54751215862327,0.596146651702207,0.520763187429854,0.55587044534413,0.538346427235316,0.497977657935285,0.589380196523054,0.506131549609811,0.484126984126984,0.493283582089552,0.603741496598639,0.553021442495127,0.467609828741623,0.575693374422188
0,0.537266488753336,0.493451463790447,0.6281179138322,0.529667422524565,0.501889644746787,0.543109939759036,0.541281007034432,0.528352490421456,0.577936746987952,0.52710843373494,0.610809763657497,0.588725300271213,0.504724111866969,0.492681047765794
0,0.545939763629432,0.518923933209647,0.528544776119403,0.578885400313972,0.651616499442587,0.56150097465887,0.493320964749536,0.606105733432614,0.64516129032258,0.59443413729128,0.522201138519924,0.512430426716141,0.606174698795181,0.515752409191994
0,0.609896219421794,0.579176114890401,0.517498138495905,0.529349089500194,0.508959207014869,0.544402985074627,0.583209785025945,0.520014964459409,0.613060428849903,0.573783359497645,0.576023391812865,0.619960474308301,0.587054409005628,0.572605363984674
0,0.539649256576439,0.60422065901518,0.539493575207861,0.537733970529669,0.542742237186682,0.590806754221389,0.541187739463601,0.602112676056338,0.560732775786539,0.555177626606198,0.59080459770115,0.533670033670034,0.520708880923935,0.513280957725402
0,0.584250474383302,0.566146413972501,0.474934530490086,0.517153996101365,0.564408041697692,0.50607210626186,0.497584541062802,0.55522609340252,0.547008547008547,0.529928918817808,0.51040061633282,0.535483870967742,0.597343453510436,0.594463150018706
0,0.562955465587044,0.59812382739212,0.517647058823529,0.511971567527123,0.51868089973313,0.384514925373134,0.507276119402985,0.497963717141799,0.550474383301708,0.546904315196998,0.521541501976285,0.5,0.592516753536858,0.531878557874763
0,0.545427133579456,0.564129412011572,0.532235945034073,0.546678877365269,0.540268782949127,0.537713156366334,0.545709215388201,0.534394473173472,0.558883003109288,0.535545191581883,0.547652312334621,0.547521186301414,0.54818007723696,0.543803014646439
Classifier6
0,0.493548387096774,0.46714179933358,0.535261194029851,0.564705882352941,0.51984126984127,0.571669793621013,0.565677966101695,0.560074626865672,0.625810141059855,0.540951492537313,0.521919879062736,0.552025269416574,0.54484052532833,0.56044776119403
0,0.598320895522388,0.5570419918246,0.537126865671642,0.590354555852078,0.549887048192771,0.55673624288425,0.55673624288425,0.537792894935752,0.551617873651772,0.555470834921845,0.600908080059303,0.516413662239089,0.564832089552239,0.508429118773946
0,0.614040060468632,0.581254724111867,0.557835820895523,0.514141805501744,0.496504157218443,0.533132530120482,0.521272590361446,0.434240150093809,0.596204933586338,0.526755852842809,0.524699728787292,0.584512285927029,0.487993298585257,0.554356357927786
0,0.544402277039848,0.427515899738122,0.525510204081633,0.534073795180723,0.583012326656394,0.594934333958724,0.493800852382797,0.542276579352851,0.535968379446641,0.512166405023548,0.546011131725418,0.578563411896745,0.568105065666041,0.61583522297808
0,0.520777735417461,0.549134036144578,0.473694029850746,0.493042317956538,0.647778614457831,0.583487940630798,0.634826152683296,0.56710722263589,0.520015698587127,0.637612951807229,0.558159392789374,0.626540832049307,0.486325115562404,0.506887565152643
0,0.527222222222222,0.53596837944664,0.599961479198767,0.504444444444444,0.513563730955035,0.565346168085894,0.561712379540401,0.515370018975332,0.624015009380863,0.600828197226503,0.444971537001897,0.541713117800074,0.487855787476281,0.571269900037023
0,0.513888888888889,0.605045180722892,0.550173343605547,0.56596060943887,0.624288425047438,0.533257747543462,0.565865943432778,0.57287037037037,0.567272053372869,0.544992469879518,0.526284584980237,0.615993137628669,0.480747235989325,0.623719165085389
0,0.603698055661457,0.527638674884438,0.476280834914611,0.475555555555556,0.515813253012048,0.572258814413018,0.489229024943311,0.557015920029619,0.503339517625232,0.512867647058824,0.579160246533128,0.512648221343873,0.546299810246679,0.568224125093075
0,0.523933209647495,0.541024653312789,0.569576820434617,0.446828358208955,0.593976362943195,0.495785440613027,0.619776119402985,0.574712643678161,0.582548945783133,0.561604029445951,0.53448275862069,0.514118975903614,0.587827426810478,0.534044145155256
0,0.607222635889799,0.557148392096087,0.597502859321388,0.575745834947695,0.513092979127135,0.541715399610136,0.55234521575985,0.554169769173492,0.52729044834308,0.564705882352941,0.582539077392299,0.593869731800766,0.590463108320251,0.633333333333333
0,0.519634006862371,0.539291217257319,0.519540229885057,0.605609939759036,0.546032357473036,0.586567164179105,0.570168855534709,0.575489457831325,0.604841784216546,0.513097072419106,0.513961280714818,0.536020104244229,0.522072577628133,0.487381404174573
0,0.485131528783835,0.485651001540832,0.598221343873518,0.561385199240987,0.559334845049131,0.53030303030303,0.571347891566265,0.519807478711588,0.482950191570881,0.517022072577628,0.538338016860698,0.571163825055597,0.500755857898715,0.555566145634769
0,0.555363984674329,0.560760667903525,0.515117157974301,0.621212121212121,0.573606927710844,0.562419285406801,0.528137726767864,0.602465331278891,0.586479198767335,0.59949171686747,0.566223908918406,0.539762170196953,0.532276119402985,0.600648112847884
0,0.513280957725402,0.5778151889263,0.488589599700711,0.574696356275304,0.531238309016087,0.502214946070878,0.543272864701436,0.519137866963954,0.510582010582011,0.56455223880597,0.574829931972789,0.577387914230019,0.467982129560685,0.523882896764253
0,0.599027830728174,0.561825885978429,0.565948601662888,0.585034013605442,0.501322751322751,0.535579819277109,0.528693076638282,0.524712643678161,0.545745481927711,0.504518072289157,0.579039132119334,0.638899651297947,0.474678760393046,0.567315100154083
0,0.496568814334731,0.523376623376624,0.479011194029851,0.583006279434851,0.512263099219621,0.564912280701754,0.517439703153989,0.565711094564408,0.608918406072106,0.58126159554731,0.487666034155598,0.432096474953618,0.556475903614458,0.524277242401779
0,0.54058561897702,0.574074074074074,0.495532390171258,0.514722975590856,0.582634388105223,0.541417910447761,0.53169014084507,0.578563411896745,0.610623781676413,0.558182888540031,0.584795321637427,0.576679841897233,0.651782363977486,0.567624521072797
0,0.542889820815859,0.595982969270641,0.5395880574452,0.506371963361211,0.550879161990273,0.584990619136961,0.508333333333333,0.582839140103781,0.617881322182397,0.599962207105064,0.539846743295019,0.580808080808081,0.475109518120271,0.501683501683502
0,0.548387096774193,0.545893719806763,0.514029180695847,0.523391812865497,0.597542814594192,0.502277039848197,0.53901895206243,0.506115641215715,0.53586027499071,0.560606060606061,0.588790446841294,0.512903225806452,0.557115749525616,0.54751215862327
0,0.561639676113361,0.530581613508443,0.561669829222011,0.516086793864572,0.538124285169653,0.608395522388059,0.556716417910448,0.613476490188819,0.58168880455408,0.502251407129456,0.53399209486166,0.540804597701149,0.540580789277736,0.536432637571157
0,0.545478185182212,0.542208334662927,0.535008551833248,0.542818530732471,0.552536855355119,0.553370101462023,0.547803072500332,0.550197437627217,0.565982712868855,0.552945054749187,0.546330966416471,0.557146226609851,0.531205961646821,0.554443520782932
Classifier7
0,0.508159392789374,0.54979637171418,0.559141791044776,0.568500948766603,0.585222978080121,0.619136960600375,0.598613251155624,0.496082089552239,0.607510484178422,0.561940298507463,0.527021919879063,0.550724637681159,0.586491557223265,0.571828358208955
0,0.588619402985075,0.586399108138239,0.553917910447761,0.631910026687,0.508471385542169,0.538709677419355,0.592409867172676,0.561791383219955,0.599961479198768,0.568623713305376,0.619532987398073,0.507779886148008,0.588805970149254,0.528927203065134
0,0.625850340136055,0.609032501889645,0.563246268656716,0.532158078264239,0.58390022675737,0.557793674698795,0.564006024096386,0.445966228893058,0.61707779886148,0.447045707915273,0.563153816350252,0.5867460908414,0.529597915115413,0.528649921507064
0,0.561480075901328,0.473438084549196,0.559334845049131,0.561558734939759,0.567218798151002,0.582176360225141,0.505230530802015,0.567796610169492,0.550592885375494,0.491954474097331,0.56808905380334,0.5662177328844,0.49718574108818,0.603174603174603
0,0.542127335112467,0.594126506024096,0.450186567164179,0.494281357224552,0.5625,0.566048237476809,0.62660619803477,0.601079672375279,0.512755102040816,0.628576807228916,0.563377609108159,0.595916795069338,0.620762711864407,0.471891288160834
0,0.570185185185185,0.516403162055336,0.543913713405239,0.530185185185185,0.524340393905611,0.597926693817105,0.602483320978503,0.5426944971537,0.598311444652908,0.573959938366718,0.526375711574953,0.53307320698625,0.491271347248577,0.576823398741207
0,0.56254724111867,0.589796686746988,0.627503852080123,0.6347082868822,0.610436432637571,0.537226001511716,0.535838822161953,0.518888888888889,0.59340252038547,0.574359939759036,0.578853754940712,0.579489134578727,0.516393442622951,0.551802656546489
0,0.601410598551277,0.468798151001541,0.441176470588235,0.492222222222222,0.516189759036145,0.515691592406044,0.575774754346183,0.576082932247315,0.545269016697588,0.475285947712418,0.532357473035439,0.556324110671937,0.587666034155598,0.570364854802681
0,0.582931354359926,0.542758089368259,0.590926420129623,0.471082089552239,0.475981700343118,0.502490421455939,0.542537313432836,0.545977011494253,0.593938253012048,0.577489345215033,0.61139093374661,0.542168674698795,0.61171032357473,0.494388327721661
0,0.573157110945644,0.598024021697017,0.536599313762867,0.544362650135606,0.551043643263757,0.561793372319688,0.519512195121951,0.556217423678332,0.490448343079922,0.538709677419355,0.582920320243996,0.509770114942529,0.515894819466248,0.559003831417625
0,0.559473884864659,0.529275808936826,0.57375478927203,0.505082831325301,0.635015408320493,0.480410447761194,0.585178236397749,0.624811746987951,0.62752573389249,0.571648690292758,0.517684288905435,0.587862993298585,0.535353535353535,0.453320683111954
0,0.501906214258482,0.567411402157165,0.593280632411067,0.608728652751423,0.534769463340892,0.525252525252525,0.534450301204819,0.551647537948908,0.468007662835249,0.507108118219229,0.595142513046969,0.586360266864344,0.488851095993953,0.562333206252383
0,0.602107279693487,0.566604823747681,0.529289493575208,0.564721286943509,0.578125,0.453077916487301,0.554979637171418,0.629815100154084,0.553736517719569,0.627447289156626,0.626755218216319,0.46711259754738,0.565671641791045,0.558711399161266
0,0.553123830901609,0.614852225963337,0.495323606434718,0.565991902834008,0.554433221099888,0.519260400616333,0.58087679516251,0.543478260869565,0.565759637188209,0.575746268656716,0.592214663643235,0.586159844054581,0.483618763961281,0.582434514637905
0,0.63076629813191,0.552966101694915,0.607331821617536,0.556500377928949,0.536092214663643,0.568900602409639,0.559422436134765,0.554214559386973,0.586784638554217,0.514871987951807,0.61216582719876,0.585044556373499,0.481103552532124,0.579352850539292
0,0.481890964544415,0.546938775510204,0.510261194029851,0.523744113029827,0.541620215533259,0.570955165692008,0.571985157699444,0.546723752792256,0.642314990512334,0.603710575139147,0.516508538899431,0.48682745825603,0.570218373493976,0.579318013343217
0,0.567457375833951,0.61130007558579,0.561057334326135,0.57690817512592,0.59778879146016,0.583022388059702,0.558932542624166,0.616161616161616,0.646198830409357,0.570447409733124,0.571734892787524,0.587944664031621,0.542589118198874,0.606130268199234
0,0.609035455585208,0.552388004442799,0.534202569916856,0.480884109916368,0.590160867938646,0.584427767354597,0.564176245210728,0.61767976278725,0.559936280366388,0.585222978080121,0.578927203065134,0.560044893378227,0.529868578255675,0.603067714178825
0,0.568880455407969,0.576923076923077,0.505050505050505,0.541910331384016,0.556775874906925,0.505123339658444,0.562244518766258,0.488695329873981,0.618914901523597,0.54900860456416,0.481895223420647,0.483681214421252,0.593738140417457,0.575383464272353
0,0.534412955465587,0.530206378986867,0.575142314990512,0.494014216236439,0.537171178040412,0.612313432835821,0.56044776119403,0.589411329137356,0.53719165085389,0.585365853658537,0.547233201581028,0.557088122605364,0.499255398361876,0.579506641366224
0,0.566276137588614,0.558871967856658,0.545532070697653,0.543972778866768,0.557362877651059,0.549086848902926,0.564785295443439,0.558760786688623,0.575781908566911,0.556426181248957,0.565666757542254,0.550816849766671,0.541802403043421,0.556820659920445
Classifier8
0,0.509677419354839,0.526656793780081,0.534888059701493,0.531499051233396,0.635865457294029,0.520075046904315,0.569915254237288,0.551119402985075,0.464163171940526,0.49570895522388,0.506613756613757,0.532329988851728,0.54577861163227,0.524626865671642
0,0.453917910447761,0.512263099219621,0.400186567164179,0.594452916507815,0.541227409638554,0.522390891840607,0.556166982922201,0.49395313681028,0.552003081664099,0.505051467784979,0.450148257968866,0.518785578747628,0.464738805970149,0.484865900383142
0,0.412887377173091,0.464474678760393,0.516231343283582,0.55850445563735,0.417611489040061,0.546310240963855,0.488893072289157,0.474108818011257,0.512333965844402,0.438498699368265,0.560829135993801,0.525316455696202,0.543186895011169,0.456043956043956
0,0.547438330170778,0.468200523756079,0.5395880574452,0.49378765060241,0.48728813559322,0.487429643527204,0.514916698953894,0.486228813559322,0.496640316205534,0.527472527472527,0.514842300556586,0.518518518518519,0.472795497185741,0.583522297808012
0,0.555470834921845,0.416792168674699,0.511007462686567,0.514677849790316,0.687970632530121,0.50556586270872,0.628495842781557,0.497207743857037,0.547684458398744,0.605609939759037,0.513662239089184,0.621340523882897,0.469953775038521,0.579486224869695
0,0.527962962962963,0.528458498023716,0.409283513097072,0.477592592592593,0.443887030843553,0.61884487226953,0.450148257968866,0.527703984819734,0.61219512195122,0.554892141756549,0.425047438330171,0.541155704199183,0.466034155597723,0.55775638652351
0,0.501889644746787,0.601844879518072,0.50982280431433,0.480490523968785,0.620872865275142,0.521541950113379,0.572161952731499,0.574444444444444,0.59655300222387,0.528614457831326,0.433794466403162,0.582729698818147,0.480747235989325,0.628842504743833
0,0.487609607319863,0.49479969183359,0.49753320683112,0.485925925925926,0.541227409638554,0.577101898488958,0.3932350718065,0.559422436134765,0.531168831168831,0.556985294117647,0.585130970724191,0.373122529644269,0.571157495256167,0.497580044676098
0,0.451576994434137,0.487095531587057,0.589973313000381,0.421268656716418,0.544605413648494,0.538888888888889,0.56884328358209,0.596168582375479,0.483998493975904,0.590275087175514,0.597927160015498,0.519390060240964,0.587249614791988,0.522446689113356
0,0.546537602382725,0.497094149554436,0.620472741136104,0.467841921735761,0.403225806451613,0.501754385964912,0.552908067542214,0.554542069992554,0.49083820662768,0.565654648956357,0.569576820434617,0.643295019157088,0.585164835164835,0.554789272030651
0,0.538505528021349,0.510593220338983,0.52088122605364,0.601468373493976,0.456086286594761,0.633582089552239,0.51125703564728,0.509600903614458,0.576439191765154,0.448767334360555,0.443503350707371,0.497766195085629,0.446315001870557,0.456925996204934
0,0.456347693480747,0.510304314329738,0.588932806324111,0.399240986717267,0.545351473922903,0.523475495697718,0.572477409638554,0.534431691965939,0.493773946360153,0.478862701084923,0.523083099156965,0.542809488510008,0.50151171579743,0.538028974456729
0,0.571455938697318,0.535064935064935,0.484504913076342,0.584362139917695,0.559299698795181,0.524106758501937,0.407441688263606,0.557492295839754,0.545839753466872,0.581325301204819,0.524667931688805,0.555927164622817,0.512686567164179,0.503431185665269
0,0.598391320613543,0.547231575009353,0.442760942760943,0.557085020242915,0.554620276842499,0.530238828967643,0.521919879062736,0.545707915273133,0.549508692365835,0.521641791044776,0.57312925170068,0.599415204678362,0.467795979151154,0.432588597842835
0,0.605985512771636,0.52426810477658,0.50453514739229,0.476757369614512,0.491496598639456,0.587443524096385,0.431321732691596,0.526245210727969,0.571347891566265,0.504047439759036,0.590662533901589,0.447500968616815,0.494520030234316,0.573767334360555
0,0.479031643156691,0.532096474953618,0.564738805970149,0.47723704866562,0.445559271646228,0.466081871345029,0.497588126159555,0.562174236783321,0.618500948766603,0.572634508348794,0.487476280834915,0.412987012987013,0.503012048192771,0.491660489251297
0,0.550407709414381,0.584845049130763,0.427029039463887,0.555792328554824,0.572245520396493,0.510820895522388,0.489343958487769,0.514777403666292,0.415009746588694,0.56063579277865,0.571150097465887,0.454545454545454,0.662476547842402,0.603639846743295
0,0.513915364086923,0.586356904850055,0.47562358276644,0.48168060533652,0.52600074822297,0.430769230769231,0.547126436781609,0.537805782060786,0.574870569494225,0.451436130007559,0.565900383141763,0.600635989524879,0.539227399442453,0.429292929292929
0,0.464895635673624,0.540505388331475,0.470445192667415,0.543859649122807,0.547282204020849,0.521821631878558,0.546079524340394,0.505930318754633,0.499535488665923,0.537785260007482,0.525808936825886,0.470967741935484,0.429791271347249,0.526187803965582
0,0.551012145748988,0.445966228893058,0.560246679316888,0.512719790497568,0.502668699961876,0.578544776119403,0.552985074626866,0.601999259533506,0.584060721062618,0.518574108818011,0.540118577075099,0.407088122605364,0.571667907669397,0.547628083491461
0,0.516245858779,0.515745610519315,0.508434270222607,0.510812242843724,0.526219621449828,0.532339439206045,0.518661267525761,0.535553222560487,0.535823280005158,0.527223679343034,0.52515364943144,0.518281371043422,0.51579056951749,0.524655569156939
Classifier9
0,0.449051233396584,0.505738615327656,0.576958955223881,0.425237191650854,0.568877551020408,0.512382739212008,0.559322033898305,0.426865671641791,0.508101410598551,0.520615671641791,0.456254724111867,0.539669267930137,0.470450281425891,0.495242537313433
0,0.506716417910448,0.521924934968413,0.519496268656716,0.478173846740374,0.580478162650602,0.431024667931689,0.493643263757116,0.526455026455027,0.569530046224962,0.487609607319863,0.498054114158636,0.582542694497154,0.543376865671642,0.455747126436782
0,0.502362055933484,0.458994708994709,0.428264925373134,0.508620689655172,0.527683295540438,0.469973644578313,0.439759036144578,0.431707317073171,0.566318785578748,0.573206986250465,0.543200309957381,0.434381980640357,0.528201787043932,0.483320251177394
0,0.551043643263757,0.503741114852226,0.512377173091459,0.487857680722892,0.520030816640986,0.483583489681051,0.427353738860907,0.54632126348228,0.55998023715415,0.435243328100471,0.496660482374768,0.541900486344931,0.475609756097561,0.553193499622071
0,0.486942432329394,0.620764307228916,0.549347014925373,0.528497903164316,0.523719879518072,0.53404452690167,0.546201814058957,0.535275502606106,0.45094191522763,0.512330572289157,0.513662239089184,0.539291217257319,0.533705701078582,0.586839166046165
0,0.509814814814815,0.552667984189723,0.459071648690293,0.518888888888889,0.436454849498328,0.442428730099963,0.449036323202372,0.396679316888046,0.483864915572233,0.525231124807396,0.48472485768501,0.542735042735043,0.562523719165085,0.461773417252869
0,0.430744520030234,0.495011295180723,0.553158705701079,0.518580453363062,0.454838709677419,0.482048374905518,0.50958930647036,0.511296296296296,0.502223869532987,0.477409638554217,0.443873517786561,0.543175752954632,0.458635150590926,0.615559772296015
0,0.489325200152497,0.495570107858243,0.468026565464896,0.459444444444444,0.499811746987952,0.513851220457187,0.511054421768707,0.59061458718993,0.541094619666048,0.529820261437909,0.532261171032357,0.641403162055336,0.523719165085389,0.565711094564408
0,0.562615955473098,0.549884437596302,0.517441860465116,0.425373134328358,0.450819672131147,0.401436781609195,0.50205223880597,0.580555555555555,0.520237198795181,0.525958930647036,0.550755521115847,0.531344126506024,0.486614021571649,0.430882903105125
0,0.528108711839166,0.578361100348702,0.564525352649638,0.578942270437815,0.551423149905123,0.594639376218324,0.569418386491557,0.565618019359643,0.514912280701754,0.556925996204934,0.553183377811666,0.525670498084291,0.531004709576138,0.492528735632184
0,0.564048799085017,0.520223420647149,0.490038314176245,0.513083584337349,0.536979969183359,0.494682835820896,0.44155722326454,0.523060993975904,0.501524971406786,0.477946841294299,0.49180938198064,0.559475055845123,0.555742611298167,0.525142314990512
0,0.432043461685093,0.469953775038521,0.590711462450593,0.564800759013283,0.51672335600907,0.510288065843621,0.532191265060241,0.436690114772307,0.465229885057471,0.469977553310887,0.475210758731433,0.549944403261675,0.556311413454271,0.502954632100648
0,0.466379310344828,0.480797773654916,0.526832955404384,0.423400673400673,0.627259036144578,0.540034438226431,0.45584968530174,0.546610169491525,0.503755778120185,0.479103915662651,0.526660341555977,0.515328874024526,0.591977611940299,0.586828059473885
0,0.574261129816685,0.483819678264123,0.460344182566405,0.553542510121457,0.54320987654321,0.507896764252696,0.568121693121693,0.586213303604608,0.509259259259259,0.540298507462687,0.478458049886621,0.543957115009747,0.566734921816828,0.529468412942989
0,0.525257338924895,0.513193374422188,0.506330309901739,0.446900982615268,0.515873015873016,0.560617469879518,0.476767863754165,0.473467432950192,0.427710843373494,0.519954819277108,0.504939945757458,0.538260364199922,0.628306878306878,0.530816640986132
0,0.488848646587876,0.531168831168831,0.494962686567164,0.499803767660911,0.605908584169454,0.564035087719298,0.499721706864564,0.514054355919583,0.537001897533207,0.612059369202226,0.545445920303605,0.560296846011132,0.505459337349398,0.515937731653076
0,0.520848776871757,0.534863945578231,0.588049143708116,0.479271600154979,0.536027449485322,0.483861940298508,0.478687916975537,0.508417508417508,0.444054580896686,0.577708006279435,0.524658869395712,0.536660079051383,0.530206378986867,0.514463601532567
0,0.522683949675943,0.453165494261385,0.513321995464853,0.558641975308642,0.490740740740741,0.476266416510319,0.517528735632184,0.569125277983692,0.593090402230187,0.499433106575964,0.529406130268199,0.501309390198279,0.529171644763043,0.458005985783764
0,0.554459203036053,0.526105536975102,0.496726524504302,0.44083820662768,0.571667907669397,0.549146110056926,0.474544778892605,0.586452928094885,0.510219249349684,0.481013842124953,0.442411402157165,0.478462998102467,0.509962049335863,0.474186307519641
0,0.418117408906883,0.512288930581614,0.55550284629981,0.522166105499439,0.532882195958826,0.571921641791045,0.536287313432836,0.505738615327656,0.546869070208729,0.514352720450281,0.554841897233202,0.506226053639847,0.549236783320923,0.566508538899431
0,0.504183650503925,0.515411968356884,0.51857444456426,0.496603333406793,0.529570498267372,0.506208216099709,0.499434437287947,0.518060962854285,0.512796060824397,0.515810039944686,0.507323650619664,0.535601770417466,0.531847539393967,0.517255536466455
Classifier10
0,0.451423149905123,0.505460940392447,0.534608208955224,0.56584440227704,0.589191232048375,0.518574108818011,0.566352080123267,0.505970149253731,0.473217689668319,0.521735074626866,0.477324263038549,0.508175399479747,0.524671669793621,0.478544776119403
0,0.576679104477612,0.492103307320699,0.484235074626866,0.47579107891727,0.563158885542169,0.458728652751423,0.510626185958254,0.551398337112623,0.543913713405239,0.524113610369806,0.476834692364715,0.600474383301708,0.52705223880597,0.479022988505747
0,0.544973544973545,0.456443688586546,0.470988805970149,0.494188299108873,0.529950869236583,0.54527484939759,0.434205572289157,0.467917448405253,0.527039848197343,0.514771460423634,0.550174351026734,0.383655994043187,0.524851079672375,0.489697802197802
0,0.570398481973435,0.513187429854097,0.586734693877551,0.490399096385542,0.525712634822804,0.512288930581613,0.444110809763658,0.576078582434515,0.488142292490119,0.451040031397174,0.53821892393321,0.562383090160868,0.502157598499062,0.587018140589569
0,0.443194815097217,0.550263554216867,0.472014925373134,0.523922988943957,0.558076054216867,0.551576994434137,0.565759637188209,0.550353685778109,0.459772370486656,0.503388554216868,0.56584440227704,0.501637134052388,0.467835130970724,0.551005212211467
0,0.493518518518519,0.569169960474308,0.484110169491525,0.462407407407407,0.459959123002601,0.462976675305442,0.473869532987398,0.377988614800759,0.472420262664165,0.486036209553159,0.493548387096774,0.546265328874025,0.494592030360531,0.484820436875231
0,0.477418745275888,0.532097138554217,0.492777349768875,0.527870680044593,0.52618595825427,0.491307634164777,0.495544362650136,0.523055555555555,0.501297257227576,0.488987198795181,0.489723320158103,0.490850171559283,0.468642775447961,0.516318785578748
0,0.500667174990469,0.478524653312789,0.462998102466793,0.426666666666667,0.512895331325301,0.530123982952344,0.431122448979592,0.560440577563865,0.481910946196661,0.45046977124183,0.513578582434515,0.523320158102767,0.541650853889943,0.611969471332837
0,0.552040816326531,0.531683359013868,0.572436141822341,0.423600746268657,0.485322150209684,0.433716475095785,0.567723880597015,0.510823754789272,0.498305722891566,0.536710577295622,0.514722975590856,0.527202560240964,0.534187211093991,0.527216610549944
0,0.526061057334326,0.55046493607129,0.506481128478841,0.572452537776056,0.511290322580645,0.542397660818713,0.554315196998124,0.53499627699181,0.45916179337232,0.623149905123339,0.492375142966069,0.518103448275862,0.502943485086342,0.499904214559387
0,0.537266488753336,0.50635593220339,0.461590038314176,0.529461596385542,0.481510015408321,0.495988805970149,0.500375234521576,0.529555722891566,0.528974456728936,0.481702619414484,0.472635889798958,0.558358153387937,0.495417134306023,0.523339658444023
0,0.539935188715212,0.521475346687211,0.564624505928854,0.552277039848197,0.511432350718065,0.515993265993266,0.604856927710844,0.48204368752314,0.46772030651341,0.486999625888515,0.496587715776796,0.548739807264641,0.474206349206349,0.562142584826535
0,0.501245210727969,0.59860853432282,0.515117157974301,0.4552936775159,0.54273343373494,0.489238054240206,0.453072935949648,0.525231124807396,0.484206471494607,0.546121987951807,0.543168880455408,0.486900780379041,0.538059701492537,0.560522302706824
0,0.417321361765806,0.558361391694725,0.497942386831276,0.553846153846154,0.532360643471754,0.527734976887519,0.537981859410431,0.527963582311408,0.517857142857143,0.507182835820896,0.529100529100529,0.538986354775828,0.540487714072971,0.513097072419106
0,0.491612657262676,0.503659476117103,0.523053665910809,0.456916099773243,0.493669690098262,0.515813253012048,0.558959644576083,0.519731800766283,0.528332078313253,0.457078313253012,0.486342502905851,0.533126695079427,0.540154950869237,0.519934514637904
0,0.450057186427754,0.484601113172542,0.479570895522388,0.533065149136578,0.57329988851728,0.540545808966862,0.502690166975881,0.516753536857781,0.530740037950664,0.583673469387755,0.535009487666034,0.502504638218924,0.511577560240964,0.481467753891772
0,0.529466271312083,0.520880574452003,0.588700670141475,0.457187136768694,0.509054517727793,0.537126865671642,0.5162157153447,0.462682379349046,0.475536062378168,0.530514128728414,0.515302144249513,0.544268774703557,0.483677298311445,0.477107279693487
0,0.475505146778498,0.483894853757867,0.50151171579743,0.544603743528475,0.513561541339319,0.517917448405253,0.535536398467433,0.491753150481838,0.534846674631621,0.546296296296296,0.523850574712644,0.478769173213618,0.45310633213859,0.424897119341564
0,0.508349146110057,0.518673355629877,0.493265993265993,0.412280701754386,0.549329858525689,0.498481973434535,0.467670011148272,0.560507783543366,0.482627276105537,0.474466891133558,0.521571648690293,0.505882352941176,0.562144212523719,0.563037785260008
0,0.496356275303644,0.491744840525329,0.52258064516129,0.453049008604564,0.539935188715212,0.590391791044776,0.512686567164179,0.475286930766383,0.532447817836812,0.511163227016886,0.516897233201581,0.442528735632184,0.559009679821296,0.592789373814042
0,0.504174517101485,0.518382719318,0.510767113783965,0.49555621054789,0.525431484474797,0.513809910397305,0.511683758440193,0.512526634099185,0.499423511070506,0.511280089396755,0.512640582372208,0.515106656684357,0.512321250330183,0.52219269417777
Classifier11
0,0.477039848197344,0.49333580155498,0.579477611940299,0.530929791271347,0.523431594860166,0.509756097560976,0.514060092449923,0.434888059701492,0.504765535646207,0.513246268656717,0.499811035525321,0.498513563730955,0.569606003752345,0.486940298507463
0,0.461194029850746,0.568004459308807,0.486380597014925,0.556614563476935,0.540850903614458,0.426185958254269,0.512333965844402,0.503968253968254,0.4884437596302,0.545749142203584,0.57227575982209,0.454838709677419,0.485074626865672,0.483333333333333
0,0.480347694633409,0.395502645502645,0.49160447761194,0.502905850445564,0.465230536659108,0.490587349397591,0.416980421686747,0.471857410881801,0.492599620493359,0.422891118543293,0.545912437039907,0.518428890543559,0.474497393894267,0.510596546310832
0,0.569829222011385,0.531425364758698,0.478080120937264,0.521837349397591,0.537172573189523,0.55046904315197,0.563541263076327,0.480739599383667,0.476679841897233,0.483712715855573,0.52226345083488,0.490647212869435,0.575422138836773,0.472411186696901
0,0.464544414792222,0.568712349397591,0.441977611940298,0.483225314525353,0.557040662650602,0.55417439703154,0.57010582010582,0.537416232315711,0.432692307692308,0.563064759036145,0.526375711574953,0.514060092449923,0.563174114021572,0.393708116157856
0,0.561481481481482,0.491699604743083,0.514060092449923,0.483703703703704,0.543849869936827,0.473713439466864,0.429206819866568,0.448007590132827,0.521388367729831,0.51906779661017,0.520303605313093,0.506503158677072,0.544022770398482,0.52388004442799
0,0.430461073318216,0.584902108433735,0.455701078582435,0.461724266072092,0.60246679316888,0.510204081632653,0.425803951956606,0.498148148148148,0.543921423276501,0.498870481927711,0.504150197628458,0.559092642012962,0.480747235989325,0.591840607210626
0,0.545558520777736,0.437788906009245,0.377039848197343,0.441851851851852,0.529367469879518,0.499418829910887,0.647203325774755,0.542021473528323,0.469387755102041,0.553513071895425,0.49711093990755,0.507312252964427,0.530929791271347,0.601079672375279
0,0.581447124304268,0.526579352850539,0.510484178421654,0.513805970149254,0.567861227601983,0.583141762452107,0.500373134328358,0.507471264367816,0.531814759036145,0.5577295621852,0.572839984502131,0.567018072289157,0.435285053929122,0.467639356528246
0,0.538533134772896,0.530802014722976,0.584254670224933,0.543587756683456,0.490891840607211,0.594541910331384,0.559099437148218,0.484549516008935,0.471150097465887,0.545540796963947,0.528402592451392,0.52911877394636,0.561420722135008,0.489463601532567
0,0.484940907357987,0.436440677966102,0.554789272030651,0.586031626506024,0.553929121725732,0.489365671641791,0.585365853658536,0.502259036144579,0.568242470453679,0.483628659476117,0.515822784810127,0.506887565152643,0.578750467639357,0.478937381404175
0,0.472359893252001,0.475924499229584,0.506916996047431,0.608728652751423,0.509826152683296,0.438458660680883,0.484186746987952,0.499074416882636,0.469540229885057,0.50430228208006,0.485347250100361,0.564492216456634,0.466553287981859,0.483606557377049
0,0.379501915708812,0.552875695732839,0.515684051398337,0.50860456416012,0.51976656626506,0.465561773568661,0.593669011477231,0.570107858243451,0.520416024653313,0.486069277108434,0.473624288425047,0.49405425492382,0.448134328358209,0.536027449485322
0,0.487467265245043,0.534979423868313,0.478114478114478,0.506275303643725,0.517583239805462,0.488251155624037,0.482993197278912,0.52099591230026,0.497543461829176,0.52089552238806,0.532123960695389,0.517933723196881,0.496835443037975,0.480161787365177
0,0.411742279832253,0.517526964560863,0.614134542705971,0.601851851851852,0.541950113378685,0.477221385542169,0.517400962606442,0.481609195402299,0.534638554216868,0.521460843373494,0.467648198372724,0.454862456412243,0.504157218442933,0.487480739599384
0,0.487037743042318,0.518181818181818,0.562686567164179,0.530416012558869,0.616127833519138,0.527095516569201,0.462337662337662,0.479709605361132,0.462428842504744,0.559554730983302,0.535863377609108,0.526901669758813,0.509977409638554,0.497405485544848
0,0.537991104521868,0.505668934240363,0.499627699180938,0.472297559085626,0.510102935569958,0.442164179104478,0.469792438843588,0.451552562663674,0.520857699805068,0.483908948194662,0.568421052631579,0.569169960474308,0.552532833020638,0.567241379310345
0,0.474456728936333,0.561828952239911,0.483560090702948,0.483273596176822,0.494014216236438,0.58968105065666,0.504214559386973,0.541882876204596,0.54320987654321,0.552343159486017,0.525862068965517,0.552001496445941,0.417960971724413,0.541900486344931
0,0.449905123339658,0.479375696767001,0.466517022072578,0.485769980506823,0.526433358153388,0.520683111954459,0.578409513192122,0.484803558191253,0.399479747305834,0.490647212869435,0.49537750385208,0.448387096774194,0.52865275142315,0.48410026187804
0,0.391295546558704,0.549906191369606,0.446869070208729,0.536475869809203,0.525924513915364,0.487686567164179,0.569216417910448,0.517586079229915,0.507590132827324,0.459099437148218,0.492687747035573,0.474712643678161,0.545234549516009,0.526565464895636
0,0.484356752596734,0.513073073071935,0.502398003847363,0.517995571731382,0.53369107617104,0.505918097084838,0.519314729795879,0.497932432453038,0.497839525399699,0.513264789349278,0.519111197354864,0.512746822621745,0.51344845559385,0.5052159878143
Classifier12
0,0.477039848197344,0.49333580155498,0.579477611940299,0.530929791271347,0.523431594860166,0.509756097560976,0.514060092449923,0.434888059701492,0.504765535646207,0.513246268656717,0.499811035525321,0.498513563730955,0.569606003752345,0.486940298507463
0,0.461194029850746,0.568004459308807,0.486380597014925,0.556614563476935,0.540850903614458,0.426185958254269,0.512333965844402,0.503968253968254,0.4884437596302,0.545749142203584,0.57227575982209,0.454838709677419,0.485074626865672,0.483333333333333
0,0.480347694633409,0.395502645502645,0.49160447761194,0.502905850445564,0.465230536659108,0.490587349397591,0.416980421686747,0.471857410881801,0.492599620493359,0.422891118543293,0.545912437039907,0.518428890543559,0.474497393894267,0.510596546310832
0,0.569829222011385,0.531425364758698,0.478080120937264,0.521837349397591,0.537172573189523,0.55046904315197,0.563541263076327,0.480739599383667,0.476679841897233,0.483712715855573,0.52226345083488,0.490647212869435,0.575422138836773,0.472411186696901
0,0.464544414792222,0.568712349397591,0.441977611940298,0.483225314525353,0.557040662650602,0.55417439703154,0.57010582010582,0.537416232315711,0.432692307692308,0.563064759036145,0.526375711574953,0.514060092449923,0.563174114021572,0.393708116157856
0,0.561481481481482,0.491699604743083,0.514060092449923,0.483703703703704,0.543849869936827,0.473713439466864,0.429206819866568,0.448007590132827,0.521388367729831,0.51906779661017,0.520303605313093,0.506503158677072,0.544022770398482,0.52388004442799
0,0.430461073318216,0.584902108433735,0.455701078582435,0.461724266072092,0.60246679316888,0.510204081632653,0.425803951956606,0.498148148148148,0.543921423276501,0.498870481927711,0.504150197628458,0.559092642012962,0.480747235989325,0.591840607210626
0,0.545558520777736,0.437788906009245,0.377039848197343,0.441851851851852,0.529367469879518,0.499418829910887,0.647203325774755,0.542021473528323,0.469387755102041,0.553513071895425,0.49711093990755,0.507312252964427,0.530929791271347,0.601079672375279
0,0.581447124304268,0.526579352850539,0.510484178421654,0.513805970149254,0.567861227601983,0.583141762452107,0.500373134328358,0.507471264367816,0.531814759036145,0.5577295621852,0.572839984502131,0.567018072289157,0.435285053929122,0.467639356528246
0,0.538533134772896,0.530802014722976,0.584254670224933,0.543587756683456,0.490891840607211,0.594541910331384,0.559099437148218,0.484549516008935,0.471150097465887,0.545540796963947,0.528402592451392,0.52911877394636,0.561420722135008,0.489463601532567
0,0.484940907357987,0.436440677966102,0.554789272030651,0.586031626506024,0.553929121725732,0.489365671641791,0.585365853658536,0.502259036144579,0.568242470453679,0.483628659476117,0.515822784810127,0.506887565152643,0.578750467639357,0.478937381404175
0,0.472359893252001,0.475924499229584,0.506916996047431,0.608728652751423,0.509826152683296,0.438458660680883,0.484186746987952,0.499074416882636,0.469540229885057,0.50430228208006,0.485347250100361,0.564492216456634,0.466553287981859,0.483606557377049
0,0.379501915708812,0.552875695732839,0.515684051398337,0.50860456416012,0.51976656626506,0.465561773568661,0.593669011477231,0.570107858243451,0.520416024653313,0.486069277108434,0.473624288425047,0.49405425492382,0.448134328358209,0.536027449485322
0,0.487467265245043,0.534979423868313,0.478114478114478,0.506275303643725,0.517583239805462,0.488251155624037,0.482993197278912,0.52099591230026,0.497543461829176,0.52089552238806,0.532123960695389,0.517933723196881,0.496835443037975,0.480161787365177
0,0.411742279832253,0.517526964560863,0.614134542705971,0.601851851851852,0.541950113378685,0.477221385542169,0.517400962606442,0.481609195402299,0.534638554216868,0.521460843373494,0.467648198372724,0.454862456412243,0.504157218442933,0.487480739599384
0,0.487037743042318,0.518181818181818,0.562686567164179,0.530416012558869,0.616127833519138,0.527095516569201,0.462337662337662,0.479709605361132,0.462428842504744,0.559554730983302,0.535863377609108,0.526901669758813,0.509977409638554,0.497405485544848
0,0.537991104521868,0.505668934240363,0.499627699180938,0.472297559085626,0.510102935569958,0.442164179104478,0.469792438843588,0.451552562663674,0.520857699805068,0.483908948194662,0.568421052631579,0.569169960474308,0.552532833020638,0.567241379310345
0,0.474456728936333,0.561828952239911,0.483560090702948,0.483273596176822,0.494014216236438,0.58968105065666,0.504214559386973,0.541882876204596,0.54320987654321,0.552343159486017,0.525862068965517,0.552001496445941,0.417960971724413,0.541900486344931
0,0.449905123339658,0.479375696767001,0.466517022072578,0.485769980506823,0.526433358153388,0.520683111954459,0.578409513192122,0.484803558191253,0.399479747305834,0.490647212869435,0.49537750385208,0.448387096774194,0.52865275142315,0.48410026187804
0,0.391295546558704,0.549906191369606,0.446869070208729,0.536475869809203,0.525924513915364,0.487686567164179,0.569216417910448,0.517586079229915,0.507590132827324,0.459099437148218,0.492687747035573,0.474712643678161,0.545234549516009,0.526565464895636
0,0.484356752596734,0.513073073071935,0.502398003847363,0.517995571731382,0.53369107617104,0.505918097084838,0.519314729795879,0.497932432453038,0.497839525399699,0.513264789349278,0.519111197354864,0.512746822621745,0.51344845559385,0.5052159878143
