TSPAN14	0.227379662
COL5A1	0.218028998
KIAA1383	0.218028998
ACBD6	0.213129706
CAPN2	0.213129706
FAP	0.213129706
ZNF280B	0.213129706
ABCB6	0.208043906
GNG4	0.208043906
IL1RN	0.208043906
MYLK2	0.208043906
OTUD1	0.208043906
UBE2N	0.208043906
DOCK8	0.202733855
FBN1	0.202733855
RBM20	0.202733855
RSPH9	0.202733855
SULT2B1	0.202733855
TACO1	0.202733855
WNK2	0.202733855
IVL	0.170891022
TMED6	0.165200827
BUB1	0.163846648
CCDC76	0.157084822
FAM173B	0.157084822
SNX27	0.157084822
CEP110	0.153656265
FAM82A1	0.147544786
CA8	0.141254999
DNAJB6	0.140660394
SPATA18	0.140660394
SYT1	0.140660394
ADAMDEC1	0.139106906
CSAG3	0.139106906
IRF1	0.139106906
HCG11	0.136927709
LAD1	0.135581272
ARID3A	0.134713515
GSG2	0.134713515
PCGF3	0.134713515
SIDT1	0.134713515
C15orf63	0.132459838
FAM162B	0.132459838
KIAA1432	0.132459838
NBEAL2	0.132459838
RAB8A	0.132459838
FGF4	0.130161471
FLJ40330	0.130161471
GPR171	0.130161471
KIAA0408	0.130161471
ZNF296	0.130161471
ATP6V1F	0.12781231
CXCR2P1	0.12781231
LOC400696	0.12781231
MED30	0.12781231
PITPNM1	0.12781231
PM20D2	0.12781231
RNF213	0.12781231
SLC5A9	0.12781231
ARHGEF33	0.127088747
FZD3	0.127088747
ZIC1	0.127088747
TTC24	0.126494363
KLRB1	0.123004941
BTN2A2	0.121582799
MIR155HG	0.121582799
CYP26A1	0.120871548
HIST1H3E	0.12073687
SORBS2	0.12073687
KLRK1	0.120590878
ARHGAP15	0.118390125
LOC100240734	0.116531352
ZCCHC18	0.112407332
ATM	0.11131166
LOC100188949	0.108628137
NMRAL1	0.108628137
C12orf35	0.105888864
CR1L	0.105888864
IDO1	0.105888864
IL21	0.105888864
TNIP3	0.105888864
HIST1H4I	0.103217667
ARRDC5	0.103213836
CD8A	0.103213836
PLEKHG7	0.103088116
SNRPB	0.103088116
SYNPO2	0.101163443
CD7	0.100617791
CRTAM	0.100617791
UBD	0.100617791
RHOH	0.100404939
DKKL1	0.100219437
NCF1C	0.100219437
SESN3	0.100219437
VTI1B	0.100219437
NLRC3	0.099836272
PVRIG	0.099545562
ETV1	0.097985899
RGL4	0.097985899
GPR89A	0.097791011
SPINK2	0.097697198
PYHIN1	0.09552628
BCL11B	0.095315162
LPHN2	0.093272429
CD5	0.093220783
CD72	0.092602328
TAP2	0.092602328
ARHGAP25	0.090799398
SLA2	0.090799398
UHRF2	0.090799398
C16orf54	0.09045594
FLRT1	0.090385328
PSPH	0.090385328
SLC8A2	0.090385328
ERAP1	0.089843855
DHDH	0.088843552
TBX21	0.088362877
CXCR6	0.087881432
GFI1	0.087881432
TRAT1	0.087881432
RASGRP1	0.087554369
FCRL1	0.087035883
IL32	0.087035883
XCL2	0.087035883
ZDHHC2	0.087035883
LY9	0.085321062
ATP6V0E2	0.085278086
PDCD1	0.085278086
ZNF518B	0.085005146
ITGBL1	0.084017941
CD48	0.083439795
EOMES	0.083439795
ACSS2	0.082643795
IL12RB1	0.082643795
NCR1	0.082643795
SIT1	0.082643795
XG	0.081695601
CD38	0.08095081
FAM113B	0.08095081
SEMA4D	0.08095081
SLAMF6	0.08095081
RAB37	0.080779447
GBP5	0.079976322
GZMK	0.079976322
LHX2	0.079976322
NUP160	0.079976322
SCLT1	0.079976322
LCK	0.07928757
CD3E	0.078391388
NXF1	0.078391388
KCNK10	0.07780328
SRPX2	0.077571777
C1orf59	0.076897312
IL2RB	0.076382834
KIR2DL4	0.075991326
MCART6	0.075911552
PCDH9	0.075911552
RASGRP2	0.075911552
LOC254559	0.075682925
NKX2-3	0.075682925
GPR174	0.07414515
JARID2	0.07414515
MAP4K1	0.07414515
MGC12982	0.073933012
IL18BP	0.073578451
CD8B	0.073498793
IL16	0.073358584
IL2RG	0.073358584
ECEL1	0.073068757
C2orf85	0.072356801
SH2D1A	0.072356801
C11orf41	0.07218134
HIST1H4E	0.07218134
TSPYL5	0.07218134
CD247	0.071905503
GBP4	0.071407344
CD3G	0.071151944
DHRS11	0.071151944
GALNTL2	0.07072511
TARP	0.07003298
TRAF3IP3	0.07003298
UBASH3A	0.069844606
CCDC88C	0.069663561
CD79A	0.069663561
FN3K	0.069260163
BMP6	0.069079008
CD3D	0.068710986
GZMA	0.068710986
NCF1	0.068710986
SLC22A18	0.068412676
BTN1A1	0.067864247
AKNA	0.067701544
CD6	0.067701544
TMEM156	0.067701544
ETS1	0.067419012
ST3GAL1	0.067080733
DLK2	0.066263882
TOX2	0.066095592
HS1BP3	0.066071884
STARD5	0.065881659
NAIP	0.065623458
C5orf56	0.065492672
PTPRCAP	0.065492672
CCAR1	0.06536202
ITGAL	0.06536202
KIAA0125	0.06536202
TLR10	0.06536202
GPR62	0.064389803
ANGPT1	0.064289629
AMIGO2	0.064092302
CXCR3	0.064092302
LAG3	0.063910694
ZAP70	0.063106652
FAM26F	0.062920977
PLA2G2D	0.062920977
SF3B1	0.062920977
SP140	0.062920977
ZNF831	0.062920977
FUT9	0.062645112
ANO10	0.062395185
BEND4	0.062317082
RPH3A	0.062132214
LAX1	0.061980093
AFF3	0.061144172
CD96	0.061144172
RBM38	0.061144172
TRANK1	0.061144172
C17orf66	0.06044212
PPP1R10	0.060337481
GPR18	0.060097994
TMEM41A	0.060053584
RNF19A	0.059596715
SHISA6	0.059511598
PKDREJ	0.059433685
RANBP17	0.05929327
LAT	0.058994464
ZBP1	0.058994464
PIF1	0.058368442
SLC12A3	0.058368442
P2RY8	0.058187152
FASLG	0.058140258
SYCP2	0.0572485
SOX30	0.056973527
ARHGEF1	0.056947885
FCRL2	0.056947885
MGC29506	0.056947885
BMP5	0.056661326
CD97	0.056599559
CXCL9	0.056599559
MAF	0.056540212
APOA1BP	0.056437806
CD19	0.0562893
CXCL10	0.056182722
ISL2	0.056182722
LYSMD1	0.055929383
MST1P9	0.055084913
GPR114	0.054526907
OCA2	0.054505531
CDK4	0.05450049
HS3ST4	0.054448404
TRIM13	0.054230351
KIF5C	0.053773167
PXN	0.053536434
SFRS13A	0.053379536
TPRXL	0.053379536
APOL6	0.052935166
MATN1	0.052935166
PHF11	0.052935166
MSL3L2	0.052754251
C7orf40	0.052517109
C21orf15	0.051512401
CASP10	0.051209727
FCRLB	0.051124674
AICDA	0.051053727
LAMP1	0.050745414
KIR3DL2	0.050674526
CRTAP	0.050549306
CD27	0.049763367
CPM	0.04928109
GRAP	0.049233991
MANEAL	0.04922047
PREX1	0.049012104
PLA2G10	0.048636124
MYH15	0.048464847
PGCP	0.04828765
CBARA1	0.048182503
TET2	0.047978644
IL20RA	0.04784381
TYK2	0.047762097
C12orf52	0.047343252
NLRP6	0.047200486
XYLT2	0.047109003
CPNE5	0.047024467
PHYH	0.046578131
LRRC3	0.04649012
VAX2	0.046465154
GBP1	0.046392333
GRAPL	0.046165725
SOX21	0.046165725
SEL1L3	0.046066666
STL	0.046066666
CELF4	0.045934774
RFPL1S	0.045934774
FNDC1	0.045817812
CERCAM	0.045710558
HIST1H2BJ	0.045639374
KIR2DS4	0.045639374
UBL4A	0.045639374
RAD21	0.045583543
C1orf21	0.0455184
ITGAD	0.0455184
NFAM1	0.0455184
UBE2J1	0.04526763
VPS18	0.044948074
TBRG1	0.044942593
NEFH	0.044913956
CECR1	0.044812757
LOC284233	0.044812757
CD160	0.044791694
PPM1H	0.044525074
AUTS2	0.044144163
GTF2A1L	0.044144163
INTS8	0.044057902
HEXB	0.043569498
FAM129C	0.043312033
TMEM155	0.043226824
IKBKB	0.043096862
CARD8	0.043069487
ICOSLG	0.043069487
PLEKHG3	0.042668484
GPR55	0.042587779
SMARCD2	0.042540206
PTGER4	0.042457612
TXNDC15	0.04218093
CUBN	0.042070637
HIST1H3D	0.041882052
TPCN2	0.041802994
PRPF38B	0.041648539
PSG1	0.041445011
ZNF323	0.041172571
GPR126	0.040907972
C6orf125	0.040519263
PRSS8	0.039779392
EPHA10	0.039473717
TPRG1L	0.038861889
CXCR5	0.038798206
TLR9	0.038723466
CYB5R1	0.038530592